ISO-10303-21;
HEADER;
/* Generated by software containing ST-Developer
 * from STEP Tools, Inc. (www.steptools.com) 
 */

FILE_DESCRIPTION(
/* description */ ('Mobile Plate'),
/* implementation_level */ '2;1');

FILE_NAME(
/* name */ 
'C:\\Users\\Augustin Zaininger\\microsoftAreCunts\\storage\\Oxford\\eq
uipmentProjects\\LED_glovebox_integratingSphere\\indexing_x-y_stage\\i
ndexingMount_mobilePlate_rev0.stp',
/* time_stamp */ '2022-11-15T18:36:44+00:00',
/* author */ ('Augustin Zaininger'),
/* organization */ (''),
/* preprocessor_version */ 'ST-DEVELOPER v18.1',
/* originating_system */ 'Autodesk Inventor 2022',
/* authorisation */ '');

FILE_SCHEMA (('AUTOMOTIVE_DESIGN { 1 0 10303 214 3 1 1 }'));
ENDSEC;

DATA;
#10=MECHANICAL_DESIGN_GEOMETRIC_PRESENTATION_REPRESENTATION('',(#13),#1146);
#11=SHAPE_REPRESENTATION_RELATIONSHIP('SRR','None',#1153,#12);
#12=ADVANCED_BREP_SHAPE_REPRESENTATION('',(#14),#1145);
#13=STYLED_ITEM('',(#1163),#14);
#14=MANIFOLD_SOLID_BREP('Solid1',#669);
#15=FACE_BOUND('',#132,.T.);
#16=FACE_BOUND('',#133,.T.);
#17=FACE_BOUND('',#134,.T.);
#18=FACE_BOUND('',#135,.T.);
#19=FACE_BOUND('',#136,.T.);
#20=FACE_BOUND('',#137,.T.);
#21=FACE_BOUND('',#138,.T.);
#22=FACE_BOUND('',#139,.T.);
#23=FACE_BOUND('',#140,.T.);
#24=FACE_BOUND('',#141,.T.);
#25=FACE_BOUND('',#142,.T.);
#26=FACE_BOUND('',#143,.T.);
#27=FACE_BOUND('',#144,.T.);
#28=FACE_BOUND('',#145,.T.);
#29=FACE_BOUND('',#146,.T.);
#30=FACE_BOUND('',#147,.T.);
#31=FACE_BOUND('',#149,.T.);
#32=FACE_BOUND('',#150,.T.);
#33=FACE_BOUND('',#151,.T.);
#34=FACE_BOUND('',#152,.T.);
#35=FACE_BOUND('',#153,.T.);
#36=FACE_BOUND('',#154,.T.);
#37=FACE_BOUND('',#155,.T.);
#38=FACE_BOUND('',#156,.T.);
#39=FACE_BOUND('',#157,.T.);
#40=FACE_BOUND('',#158,.T.);
#41=FACE_BOUND('',#159,.T.);
#42=FACE_BOUND('',#160,.T.);
#43=PLANE('',#754);
#44=PLANE('',#755);
#45=PLANE('',#756);
#46=PLANE('',#757);
#47=PLANE('',#758);
#48=PLANE('',#759);
#49=PLANE('',#760);
#50=PLANE('',#761);
#51=PLANE('',#762);
#52=PLANE('',#763);
#53=CONICAL_SURFACE('',#704,0.5,1.02974425867665);
#54=CONICAL_SURFACE('',#708,0.5,1.02974425867665);
#55=CONICAL_SURFACE('',#712,0.5,1.02974425867665);
#56=CONICAL_SURFACE('',#716,0.5,1.02974425867665);
#57=CONICAL_SURFACE('',#720,0.5,1.02974425867665);
#58=CONICAL_SURFACE('',#724,0.5,1.02974425867665);
#59=CONICAL_SURFACE('',#746,0.775,1.02974425867665);
#60=CONICAL_SURFACE('',#750,0.775,1.02974425867665);
#61=FACE_OUTER_BOUND('',#97,.T.);
#62=FACE_OUTER_BOUND('',#98,.T.);
#63=FACE_OUTER_BOUND('',#99,.T.);
#64=FACE_OUTER_BOUND('',#100,.T.);
#65=FACE_OUTER_BOUND('',#101,.T.);
#66=FACE_OUTER_BOUND('',#102,.T.);
#67=FACE_OUTER_BOUND('',#103,.T.);
#68=FACE_OUTER_BOUND('',#104,.T.);
#69=FACE_OUTER_BOUND('',#105,.T.);
#70=FACE_OUTER_BOUND('',#106,.T.);
#71=FACE_OUTER_BOUND('',#107,.T.);
#72=FACE_OUTER_BOUND('',#108,.T.);
#73=FACE_OUTER_BOUND('',#109,.T.);
#74=FACE_OUTER_BOUND('',#110,.T.);
#75=FACE_OUTER_BOUND('',#111,.T.);
#76=FACE_OUTER_BOUND('',#112,.T.);
#77=FACE_OUTER_BOUND('',#113,.T.);
#78=FACE_OUTER_BOUND('',#114,.T.);
#79=FACE_OUTER_BOUND('',#115,.T.);
#80=FACE_OUTER_BOUND('',#116,.T.);
#81=FACE_OUTER_BOUND('',#117,.T.);
#82=FACE_OUTER_BOUND('',#118,.T.);
#83=FACE_OUTER_BOUND('',#119,.T.);
#84=FACE_OUTER_BOUND('',#120,.T.);
#85=FACE_OUTER_BOUND('',#121,.T.);
#86=FACE_OUTER_BOUND('',#122,.T.);
#87=FACE_OUTER_BOUND('',#123,.T.);
#88=FACE_OUTER_BOUND('',#124,.T.);
#89=FACE_OUTER_BOUND('',#125,.T.);
#90=FACE_OUTER_BOUND('',#126,.T.);
#91=FACE_OUTER_BOUND('',#127,.T.);
#92=FACE_OUTER_BOUND('',#128,.T.);
#93=FACE_OUTER_BOUND('',#129,.T.);
#94=FACE_OUTER_BOUND('',#130,.T.);
#95=FACE_OUTER_BOUND('',#131,.T.);
#96=FACE_OUTER_BOUND('',#148,.T.);
#97=EDGE_LOOP('',(#443,#444,#445,#446));
#98=EDGE_LOOP('',(#447,#448,#449,#450));
#99=EDGE_LOOP('',(#451,#452,#453,#454));
#100=EDGE_LOOP('',(#455,#456,#457,#458));
#101=EDGE_LOOP('',(#459,#460,#461));
#102=EDGE_LOOP('',(#462,#463,#464,#465));
#103=EDGE_LOOP('',(#466,#467,#468));
#104=EDGE_LOOP('',(#469,#470,#471,#472));
#105=EDGE_LOOP('',(#473,#474,#475));
#106=EDGE_LOOP('',(#476,#477,#478,#479));
#107=EDGE_LOOP('',(#480,#481,#482));
#108=EDGE_LOOP('',(#483,#484,#485,#486));
#109=EDGE_LOOP('',(#487,#488,#489));
#110=EDGE_LOOP('',(#490,#491,#492,#493));
#111=EDGE_LOOP('',(#494,#495,#496));
#112=EDGE_LOOP('',(#497,#498,#499,#500));
#113=EDGE_LOOP('',(#501,#502,#503,#504));
#114=EDGE_LOOP('',(#505,#506,#507,#508));
#115=EDGE_LOOP('',(#509,#510,#511,#512));
#116=EDGE_LOOP('',(#513,#514,#515,#516));
#117=EDGE_LOOP('',(#517,#518,#519,#520));
#118=EDGE_LOOP('',(#521,#522,#523,#524));
#119=EDGE_LOOP('',(#525,#526,#527));
#120=EDGE_LOOP('',(#528,#529,#530,#531));
#121=EDGE_LOOP('',(#532,#533,#534));
#122=EDGE_LOOP('',(#535,#536,#537,#538));
#123=EDGE_LOOP('',(#539,#540,#541,#542));
#124=EDGE_LOOP('',(#543,#544,#545,#546));
#125=EDGE_LOOP('',(#547,#548,#549,#550));
#126=EDGE_LOOP('',(#551,#552,#553,#554));
#127=EDGE_LOOP('',(#555,#556,#557,#558));
#128=EDGE_LOOP('',(#559,#560,#561,#562,#563,#564,#565,#566));
#129=EDGE_LOOP('',(#567,#568,#569,#570));
#130=EDGE_LOOP('',(#571,#572,#573,#574,#575,#576,#577,#578));
#131=EDGE_LOOP('',(#579,#580,#581,#582));
#132=EDGE_LOOP('',(#583));
#133=EDGE_LOOP('',(#584));
#134=EDGE_LOOP('',(#585));
#135=EDGE_LOOP('',(#586));
#136=EDGE_LOOP('',(#587));
#137=EDGE_LOOP('',(#588));
#138=EDGE_LOOP('',(#589));
#139=EDGE_LOOP('',(#590));
#140=EDGE_LOOP('',(#591));
#141=EDGE_LOOP('',(#592));
#142=EDGE_LOOP('',(#593));
#143=EDGE_LOOP('',(#594));
#144=EDGE_LOOP('',(#595));
#145=EDGE_LOOP('',(#596));
#146=EDGE_LOOP('',(#597));
#147=EDGE_LOOP('',(#598));
#148=EDGE_LOOP('',(#599,#600,#601,#602));
#149=EDGE_LOOP('',(#603));
#150=EDGE_LOOP('',(#604));
#151=EDGE_LOOP('',(#605));
#152=EDGE_LOOP('',(#606));
#153=EDGE_LOOP('',(#607));
#154=EDGE_LOOP('',(#608));
#155=EDGE_LOOP('',(#609));
#156=EDGE_LOOP('',(#610));
#157=EDGE_LOOP('',(#611));
#158=EDGE_LOOP('',(#612));
#159=EDGE_LOOP('',(#613));
#160=EDGE_LOOP('',(#614));
#161=LINE('',#965,#211);
#162=LINE('',#971,#212);
#163=LINE('',#977,#213);
#164=LINE('',#983,#214);
#165=LINE('',#989,#215);
#166=LINE('',#993,#216);
#167=LINE('',#998,#217);
#168=LINE('',#1002,#218);
#169=LINE('',#1007,#219);
#170=LINE('',#1011,#220);
#171=LINE('',#1016,#221);
#172=LINE('',#1020,#222);
#173=LINE('',#1025,#223);
#174=LINE('',#1029,#224);
#175=LINE('',#1034,#225);
#176=LINE('',#1038,#226);
#177=LINE('',#1043,#227);
#178=LINE('',#1049,#228);
#179=LINE('',#1055,#229);
#180=LINE('',#1061,#230);
#181=LINE('',#1067,#231);
#182=LINE('',#1073,#232);
#183=LINE('',#1079,#233);
#184=LINE('',#1083,#234);
#185=LINE('',#1088,#235);
#186=LINE('',#1092,#236);
#187=LINE('',#1096,#237);
#188=LINE('',#1098,#238);
#189=LINE('',#1100,#239);
#190=LINE('',#1101,#240);
#191=LINE('',#1104,#241);
#192=LINE('',#1106,#242);
#193=LINE('',#1107,#243);
#194=LINE('',#1111,#244);
#195=LINE('',#1113,#245);
#196=LINE('',#1115,#246);
#197=LINE('',#1116,#247);
#198=LINE('',#1120,#248);
#199=LINE('',#1121,#249);
#200=LINE('',#1122,#250);
#201=LINE('',#1125,#251);
#202=LINE('',#1127,#252);
#203=LINE('',#1128,#253);
#204=LINE('',#1130,#254);
#205=LINE('',#1132,#255);
#206=LINE('',#1133,#256);
#207=LINE('',#1136,#257);
#208=LINE('',#1137,#258);
#209=LINE('',#1139,#259);
#210=LINE('',#1140,#260);
#211=VECTOR('',#770,1.2295);
#212=VECTOR('',#777,1.2295);
#213=VECTOR('',#784,1.2295);
#214=VECTOR('',#791,1.2295);
#215=VECTOR('',#798,0.5);
#216=VECTOR('',#803,1.);
#217=VECTOR('',#808,0.5);
#218=VECTOR('',#813,1.);
#219=VECTOR('',#818,0.5);
#220=VECTOR('',#823,1.);
#221=VECTOR('',#828,0.5);
#222=VECTOR('',#833,1.);
#223=VECTOR('',#838,0.5);
#224=VECTOR('',#843,1.);
#225=VECTOR('',#848,0.5);
#226=VECTOR('',#853,1.);
#227=VECTOR('',#858,1.2295);
#228=VECTOR('',#865,1.2295);
#229=VECTOR('',#872,1.2295);
#230=VECTOR('',#879,1.2295);
#231=VECTOR('',#886,1.2295);
#232=VECTOR('',#893,1.2295);
#233=VECTOR('',#900,0.775);
#234=VECTOR('',#905,1.55);
#235=VECTOR('',#910,0.775);
#236=VECTOR('',#915,1.55);
#237=VECTOR('',#918,10.);
#238=VECTOR('',#919,10.);
#239=VECTOR('',#920,10.);
#240=VECTOR('',#921,10.);
#241=VECTOR('',#924,10.);
#242=VECTOR('',#925,10.);
#243=VECTOR('',#926,10.);
#244=VECTOR('',#929,10.);
#245=VECTOR('',#930,10.);
#246=VECTOR('',#931,10.);
#247=VECTOR('',#932,10.);
#248=VECTOR('',#935,10.);
#249=VECTOR('',#936,10.);
#250=VECTOR('',#937,10.);
#251=VECTOR('',#940,10.);
#252=VECTOR('',#941,10.);
#253=VECTOR('',#942,10.);
#254=VECTOR('',#945,10.);
#255=VECTOR('',#946,10.);
#256=VECTOR('',#947,10.);
#257=VECTOR('',#950,10.);
#258=VECTOR('',#951,10.);
#259=VECTOR('',#954,10.);
#260=VECTOR('',#955,10.);
#261=CIRCLE('',#693,1.2295);
#262=CIRCLE('',#694,1.2295);
#263=CIRCLE('',#696,1.2295);
#264=CIRCLE('',#697,1.2295);
#265=CIRCLE('',#699,1.2295);
#266=CIRCLE('',#700,1.2295);
#267=CIRCLE('',#702,1.2295);
#268=CIRCLE('',#703,1.2295);
#269=CIRCLE('',#705,1.);
#270=CIRCLE('',#707,1.);
#271=CIRCLE('',#709,1.);
#272=CIRCLE('',#711,1.);
#273=CIRCLE('',#713,1.);
#274=CIRCLE('',#715,1.);
#275=CIRCLE('',#717,1.);
#276=CIRCLE('',#719,1.);
#277=CIRCLE('',#721,1.);
#278=CIRCLE('',#723,1.);
#279=CIRCLE('',#725,1.);
#280=CIRCLE('',#727,1.);
#281=CIRCLE('',#729,1.2295);
#282=CIRCLE('',#730,1.2295);
#283=CIRCLE('',#732,1.2295);
#284=CIRCLE('',#733,1.2295);
#285=CIRCLE('',#735,1.2295);
#286=CIRCLE('',#736,1.2295);
#287=CIRCLE('',#738,1.2295);
#288=CIRCLE('',#739,1.2295);
#289=CIRCLE('',#741,1.2295);
#290=CIRCLE('',#742,1.2295);
#291=CIRCLE('',#744,1.2295);
#292=CIRCLE('',#745,1.2295);
#293=CIRCLE('',#747,1.55);
#294=CIRCLE('',#749,1.55);
#295=CIRCLE('',#751,1.55);
#296=CIRCLE('',#753,1.55);
#297=VERTEX_POINT('',#962);
#298=VERTEX_POINT('',#964);
#299=VERTEX_POINT('',#968);
#300=VERTEX_POINT('',#970);
#301=VERTEX_POINT('',#974);
#302=VERTEX_POINT('',#976);
#303=VERTEX_POINT('',#980);
#304=VERTEX_POINT('',#982);
#305=VERTEX_POINT('',#986);
#306=VERTEX_POINT('',#988);
#307=VERTEX_POINT('',#991);
#308=VERTEX_POINT('',#995);
#309=VERTEX_POINT('',#997);
#310=VERTEX_POINT('',#1000);
#311=VERTEX_POINT('',#1004);
#312=VERTEX_POINT('',#1006);
#313=VERTEX_POINT('',#1009);
#314=VERTEX_POINT('',#1013);
#315=VERTEX_POINT('',#1015);
#316=VERTEX_POINT('',#1018);
#317=VERTEX_POINT('',#1022);
#318=VERTEX_POINT('',#1024);
#319=VERTEX_POINT('',#1027);
#320=VERTEX_POINT('',#1031);
#321=VERTEX_POINT('',#1033);
#322=VERTEX_POINT('',#1036);
#323=VERTEX_POINT('',#1040);
#324=VERTEX_POINT('',#1042);
#325=VERTEX_POINT('',#1046);
#326=VERTEX_POINT('',#1048);
#327=VERTEX_POINT('',#1052);
#328=VERTEX_POINT('',#1054);
#329=VERTEX_POINT('',#1058);
#330=VERTEX_POINT('',#1060);
#331=VERTEX_POINT('',#1064);
#332=VERTEX_POINT('',#1066);
#333=VERTEX_POINT('',#1070);
#334=VERTEX_POINT('',#1072);
#335=VERTEX_POINT('',#1076);
#336=VERTEX_POINT('',#1078);
#337=VERTEX_POINT('',#1081);
#338=VERTEX_POINT('',#1085);
#339=VERTEX_POINT('',#1087);
#340=VERTEX_POINT('',#1090);
#341=VERTEX_POINT('',#1094);
#342=VERTEX_POINT('',#1095);
#343=VERTEX_POINT('',#1097);
#344=VERTEX_POINT('',#1099);
#345=VERTEX_POINT('',#1103);
#346=VERTEX_POINT('',#1105);
#347=VERTEX_POINT('',#1109);
#348=VERTEX_POINT('',#1110);
#349=VERTEX_POINT('',#1112);
#350=VERTEX_POINT('',#1114);
#351=VERTEX_POINT('',#1118);
#352=VERTEX_POINT('',#1119);
#353=VERTEX_POINT('',#1124);
#354=VERTEX_POINT('',#1126);
#355=VERTEX_POINT('',#1131);
#356=VERTEX_POINT('',#1135);
#357=EDGE_CURVE('',#297,#297,#261,.T.);
#358=EDGE_CURVE('',#297,#298,#161,.T.);
#359=EDGE_CURVE('',#298,#298,#262,.T.);
#360=EDGE_CURVE('',#299,#299,#263,.T.);
#361=EDGE_CURVE('',#299,#300,#162,.T.);
#362=EDGE_CURVE('',#300,#300,#264,.T.);
#363=EDGE_CURVE('',#301,#301,#265,.T.);
#364=EDGE_CURVE('',#301,#302,#163,.T.);
#365=EDGE_CURVE('',#302,#302,#266,.T.);
#366=EDGE_CURVE('',#303,#303,#267,.T.);
#367=EDGE_CURVE('',#303,#304,#164,.T.);
#368=EDGE_CURVE('',#304,#304,#268,.T.);
#369=EDGE_CURVE('',#305,#305,#269,.T.);
#370=EDGE_CURVE('',#305,#306,#165,.T.);
#371=EDGE_CURVE('',#307,#307,#270,.T.);
#372=EDGE_CURVE('',#307,#305,#166,.T.);
#373=EDGE_CURVE('',#308,#308,#271,.T.);
#374=EDGE_CURVE('',#308,#309,#167,.T.);
#375=EDGE_CURVE('',#310,#310,#272,.T.);
#376=EDGE_CURVE('',#310,#308,#168,.T.);
#377=EDGE_CURVE('',#311,#311,#273,.T.);
#378=EDGE_CURVE('',#311,#312,#169,.T.);
#379=EDGE_CURVE('',#313,#313,#274,.T.);
#380=EDGE_CURVE('',#313,#311,#170,.T.);
#381=EDGE_CURVE('',#314,#314,#275,.T.);
#382=EDGE_CURVE('',#314,#315,#171,.T.);
#383=EDGE_CURVE('',#316,#316,#276,.T.);
#384=EDGE_CURVE('',#316,#314,#172,.T.);
#385=EDGE_CURVE('',#317,#317,#277,.T.);
#386=EDGE_CURVE('',#317,#318,#173,.T.);
#387=EDGE_CURVE('',#319,#319,#278,.T.);
#388=EDGE_CURVE('',#319,#317,#174,.T.);
#389=EDGE_CURVE('',#320,#320,#279,.T.);
#390=EDGE_CURVE('',#320,#321,#175,.T.);
#391=EDGE_CURVE('',#322,#322,#280,.T.);
#392=EDGE_CURVE('',#322,#320,#176,.T.);
#393=EDGE_CURVE('',#323,#323,#281,.T.);
#394=EDGE_CURVE('',#323,#324,#177,.T.);
#395=EDGE_CURVE('',#324,#324,#282,.T.);
#396=EDGE_CURVE('',#325,#325,#283,.T.);
#397=EDGE_CURVE('',#325,#326,#178,.T.);
#398=EDGE_CURVE('',#326,#326,#284,.T.);
#399=EDGE_CURVE('',#327,#327,#285,.T.);
#400=EDGE_CURVE('',#327,#328,#179,.T.);
#401=EDGE_CURVE('',#328,#328,#286,.T.);
#402=EDGE_CURVE('',#329,#329,#287,.T.);
#403=EDGE_CURVE('',#329,#330,#180,.T.);
#404=EDGE_CURVE('',#330,#330,#288,.T.);
#405=EDGE_CURVE('',#331,#331,#289,.T.);
#406=EDGE_CURVE('',#331,#332,#181,.T.);
#407=EDGE_CURVE('',#332,#332,#290,.T.);
#408=EDGE_CURVE('',#333,#333,#291,.T.);
#409=EDGE_CURVE('',#333,#334,#182,.T.);
#410=EDGE_CURVE('',#334,#334,#292,.T.);
#411=EDGE_CURVE('',#335,#335,#293,.T.);
#412=EDGE_CURVE('',#335,#336,#183,.T.);
#413=EDGE_CURVE('',#337,#337,#294,.T.);
#414=EDGE_CURVE('',#337,#335,#184,.T.);
#415=EDGE_CURVE('',#338,#338,#295,.T.);
#416=EDGE_CURVE('',#338,#339,#185,.T.);
#417=EDGE_CURVE('',#340,#340,#296,.T.);
#418=EDGE_CURVE('',#340,#338,#186,.T.);
#419=EDGE_CURVE('',#341,#342,#187,.T.);
#420=EDGE_CURVE('',#343,#341,#188,.T.);
#421=EDGE_CURVE('',#343,#344,#189,.T.);
#422=EDGE_CURVE('',#342,#344,#190,.T.);
#423=EDGE_CURVE('',#345,#343,#191,.T.);
#424=EDGE_CURVE('',#346,#345,#192,.T.);
#425=EDGE_CURVE('',#344,#346,#193,.T.);
#426=EDGE_CURVE('',#347,#348,#194,.T.);
#427=EDGE_CURVE('',#349,#347,#195,.T.);
#428=EDGE_CURVE('',#349,#350,#196,.T.);
#429=EDGE_CURVE('',#348,#350,#197,.T.);
#430=EDGE_CURVE('',#351,#352,#198,.T.);
#431=EDGE_CURVE('',#350,#351,#199,.T.);
#432=EDGE_CURVE('',#352,#349,#200,.T.);
#433=EDGE_CURVE('',#353,#345,#201,.T.);
#434=EDGE_CURVE('',#353,#354,#202,.T.);
#435=EDGE_CURVE('',#354,#346,#203,.T.);
#436=EDGE_CURVE('',#348,#341,#204,.T.);
#437=EDGE_CURVE('',#355,#351,#205,.T.);
#438=EDGE_CURVE('',#355,#353,#206,.T.);
#439=EDGE_CURVE('',#356,#352,#207,.T.);
#440=EDGE_CURVE('',#356,#355,#208,.T.);
#441=EDGE_CURVE('',#354,#356,#209,.T.);
#442=EDGE_CURVE('',#342,#347,#210,.T.);
#443=ORIENTED_EDGE('',*,*,#357,.F.);
#444=ORIENTED_EDGE('',*,*,#358,.T.);
#445=ORIENTED_EDGE('',*,*,#359,.F.);
#446=ORIENTED_EDGE('',*,*,#358,.F.);
#447=ORIENTED_EDGE('',*,*,#360,.F.);
#448=ORIENTED_EDGE('',*,*,#361,.T.);
#449=ORIENTED_EDGE('',*,*,#362,.F.);
#450=ORIENTED_EDGE('',*,*,#361,.F.);
#451=ORIENTED_EDGE('',*,*,#363,.F.);
#452=ORIENTED_EDGE('',*,*,#364,.T.);
#453=ORIENTED_EDGE('',*,*,#365,.F.);
#454=ORIENTED_EDGE('',*,*,#364,.F.);
#455=ORIENTED_EDGE('',*,*,#366,.F.);
#456=ORIENTED_EDGE('',*,*,#367,.T.);
#457=ORIENTED_EDGE('',*,*,#368,.F.);
#458=ORIENTED_EDGE('',*,*,#367,.F.);
#459=ORIENTED_EDGE('',*,*,#369,.T.);
#460=ORIENTED_EDGE('',*,*,#370,.T.);
#461=ORIENTED_EDGE('',*,*,#370,.F.);
#462=ORIENTED_EDGE('',*,*,#371,.F.);
#463=ORIENTED_EDGE('',*,*,#372,.T.);
#464=ORIENTED_EDGE('',*,*,#369,.F.);
#465=ORIENTED_EDGE('',*,*,#372,.F.);
#466=ORIENTED_EDGE('',*,*,#373,.T.);
#467=ORIENTED_EDGE('',*,*,#374,.T.);
#468=ORIENTED_EDGE('',*,*,#374,.F.);
#469=ORIENTED_EDGE('',*,*,#375,.F.);
#470=ORIENTED_EDGE('',*,*,#376,.T.);
#471=ORIENTED_EDGE('',*,*,#373,.F.);
#472=ORIENTED_EDGE('',*,*,#376,.F.);
#473=ORIENTED_EDGE('',*,*,#377,.T.);
#474=ORIENTED_EDGE('',*,*,#378,.T.);
#475=ORIENTED_EDGE('',*,*,#378,.F.);
#476=ORIENTED_EDGE('',*,*,#379,.F.);
#477=ORIENTED_EDGE('',*,*,#380,.T.);
#478=ORIENTED_EDGE('',*,*,#377,.F.);
#479=ORIENTED_EDGE('',*,*,#380,.F.);
#480=ORIENTED_EDGE('',*,*,#381,.T.);
#481=ORIENTED_EDGE('',*,*,#382,.T.);
#482=ORIENTED_EDGE('',*,*,#382,.F.);
#483=ORIENTED_EDGE('',*,*,#383,.F.);
#484=ORIENTED_EDGE('',*,*,#384,.T.);
#485=ORIENTED_EDGE('',*,*,#381,.F.);
#486=ORIENTED_EDGE('',*,*,#384,.F.);
#487=ORIENTED_EDGE('',*,*,#385,.T.);
#488=ORIENTED_EDGE('',*,*,#386,.T.);
#489=ORIENTED_EDGE('',*,*,#386,.F.);
#490=ORIENTED_EDGE('',*,*,#387,.F.);
#491=ORIENTED_EDGE('',*,*,#388,.T.);
#492=ORIENTED_EDGE('',*,*,#385,.F.);
#493=ORIENTED_EDGE('',*,*,#388,.F.);
#494=ORIENTED_EDGE('',*,*,#389,.T.);
#495=ORIENTED_EDGE('',*,*,#390,.T.);
#496=ORIENTED_EDGE('',*,*,#390,.F.);
#497=ORIENTED_EDGE('',*,*,#391,.F.);
#498=ORIENTED_EDGE('',*,*,#392,.T.);
#499=ORIENTED_EDGE('',*,*,#389,.F.);
#500=ORIENTED_EDGE('',*,*,#392,.F.);
#501=ORIENTED_EDGE('',*,*,#393,.F.);
#502=ORIENTED_EDGE('',*,*,#394,.T.);
#503=ORIENTED_EDGE('',*,*,#395,.F.);
#504=ORIENTED_EDGE('',*,*,#394,.F.);
#505=ORIENTED_EDGE('',*,*,#396,.F.);
#506=ORIENTED_EDGE('',*,*,#397,.T.);
#507=ORIENTED_EDGE('',*,*,#398,.F.);
#508=ORIENTED_EDGE('',*,*,#397,.F.);
#509=ORIENTED_EDGE('',*,*,#399,.F.);
#510=ORIENTED_EDGE('',*,*,#400,.T.);
#511=ORIENTED_EDGE('',*,*,#401,.F.);
#512=ORIENTED_EDGE('',*,*,#400,.F.);
#513=ORIENTED_EDGE('',*,*,#402,.F.);
#514=ORIENTED_EDGE('',*,*,#403,.T.);
#515=ORIENTED_EDGE('',*,*,#404,.F.);
#516=ORIENTED_EDGE('',*,*,#403,.F.);
#517=ORIENTED_EDGE('',*,*,#405,.F.);
#518=ORIENTED_EDGE('',*,*,#406,.T.);
#519=ORIENTED_EDGE('',*,*,#407,.F.);
#520=ORIENTED_EDGE('',*,*,#406,.F.);
#521=ORIENTED_EDGE('',*,*,#408,.F.);
#522=ORIENTED_EDGE('',*,*,#409,.T.);
#523=ORIENTED_EDGE('',*,*,#410,.F.);
#524=ORIENTED_EDGE('',*,*,#409,.F.);
#525=ORIENTED_EDGE('',*,*,#411,.T.);
#526=ORIENTED_EDGE('',*,*,#412,.T.);
#527=ORIENTED_EDGE('',*,*,#412,.F.);
#528=ORIENTED_EDGE('',*,*,#413,.F.);
#529=ORIENTED_EDGE('',*,*,#414,.T.);
#530=ORIENTED_EDGE('',*,*,#411,.F.);
#531=ORIENTED_EDGE('',*,*,#414,.F.);
#532=ORIENTED_EDGE('',*,*,#415,.T.);
#533=ORIENTED_EDGE('',*,*,#416,.T.);
#534=ORIENTED_EDGE('',*,*,#416,.F.);
#535=ORIENTED_EDGE('',*,*,#417,.F.);
#536=ORIENTED_EDGE('',*,*,#418,.T.);
#537=ORIENTED_EDGE('',*,*,#415,.F.);
#538=ORIENTED_EDGE('',*,*,#418,.F.);
#539=ORIENTED_EDGE('',*,*,#419,.F.);
#540=ORIENTED_EDGE('',*,*,#420,.F.);
#541=ORIENTED_EDGE('',*,*,#421,.T.);
#542=ORIENTED_EDGE('',*,*,#422,.F.);
#543=ORIENTED_EDGE('',*,*,#423,.F.);
#544=ORIENTED_EDGE('',*,*,#424,.F.);
#545=ORIENTED_EDGE('',*,*,#425,.F.);
#546=ORIENTED_EDGE('',*,*,#421,.F.);
#547=ORIENTED_EDGE('',*,*,#426,.F.);
#548=ORIENTED_EDGE('',*,*,#427,.F.);
#549=ORIENTED_EDGE('',*,*,#428,.T.);
#550=ORIENTED_EDGE('',*,*,#429,.F.);
#551=ORIENTED_EDGE('',*,*,#430,.F.);
#552=ORIENTED_EDGE('',*,*,#431,.F.);
#553=ORIENTED_EDGE('',*,*,#428,.F.);
#554=ORIENTED_EDGE('',*,*,#432,.F.);
#555=ORIENTED_EDGE('',*,*,#424,.T.);
#556=ORIENTED_EDGE('',*,*,#433,.F.);
#557=ORIENTED_EDGE('',*,*,#434,.T.);
#558=ORIENTED_EDGE('',*,*,#435,.T.);
#559=ORIENTED_EDGE('',*,*,#423,.T.);
#560=ORIENTED_EDGE('',*,*,#420,.T.);
#561=ORIENTED_EDGE('',*,*,#436,.F.);
#562=ORIENTED_EDGE('',*,*,#429,.T.);
#563=ORIENTED_EDGE('',*,*,#431,.T.);
#564=ORIENTED_EDGE('',*,*,#437,.F.);
#565=ORIENTED_EDGE('',*,*,#438,.T.);
#566=ORIENTED_EDGE('',*,*,#433,.T.);
#567=ORIENTED_EDGE('',*,*,#430,.T.);
#568=ORIENTED_EDGE('',*,*,#439,.F.);
#569=ORIENTED_EDGE('',*,*,#440,.T.);
#570=ORIENTED_EDGE('',*,*,#437,.T.);
#571=ORIENTED_EDGE('',*,*,#425,.T.);
#572=ORIENTED_EDGE('',*,*,#435,.F.);
#573=ORIENTED_EDGE('',*,*,#441,.T.);
#574=ORIENTED_EDGE('',*,*,#439,.T.);
#575=ORIENTED_EDGE('',*,*,#432,.T.);
#576=ORIENTED_EDGE('',*,*,#427,.T.);
#577=ORIENTED_EDGE('',*,*,#442,.F.);
#578=ORIENTED_EDGE('',*,*,#422,.T.);
#579=ORIENTED_EDGE('',*,*,#419,.T.);
#580=ORIENTED_EDGE('',*,*,#442,.T.);
#581=ORIENTED_EDGE('',*,*,#426,.T.);
#582=ORIENTED_EDGE('',*,*,#436,.T.);
#583=ORIENTED_EDGE('',*,*,#357,.T.);
#584=ORIENTED_EDGE('',*,*,#360,.T.);
#585=ORIENTED_EDGE('',*,*,#363,.T.);
#586=ORIENTED_EDGE('',*,*,#366,.T.);
#587=ORIENTED_EDGE('',*,*,#371,.T.);
#588=ORIENTED_EDGE('',*,*,#375,.T.);
#589=ORIENTED_EDGE('',*,*,#379,.T.);
#590=ORIENTED_EDGE('',*,*,#383,.T.);
#591=ORIENTED_EDGE('',*,*,#387,.T.);
#592=ORIENTED_EDGE('',*,*,#391,.T.);
#593=ORIENTED_EDGE('',*,*,#393,.T.);
#594=ORIENTED_EDGE('',*,*,#396,.T.);
#595=ORIENTED_EDGE('',*,*,#399,.T.);
#596=ORIENTED_EDGE('',*,*,#402,.T.);
#597=ORIENTED_EDGE('',*,*,#405,.T.);
#598=ORIENTED_EDGE('',*,*,#408,.T.);
#599=ORIENTED_EDGE('',*,*,#440,.F.);
#600=ORIENTED_EDGE('',*,*,#441,.F.);
#601=ORIENTED_EDGE('',*,*,#434,.F.);
#602=ORIENTED_EDGE('',*,*,#438,.F.);
#603=ORIENTED_EDGE('',*,*,#359,.T.);
#604=ORIENTED_EDGE('',*,*,#362,.T.);
#605=ORIENTED_EDGE('',*,*,#365,.T.);
#606=ORIENTED_EDGE('',*,*,#368,.T.);
#607=ORIENTED_EDGE('',*,*,#395,.T.);
#608=ORIENTED_EDGE('',*,*,#398,.T.);
#609=ORIENTED_EDGE('',*,*,#401,.T.);
#610=ORIENTED_EDGE('',*,*,#404,.T.);
#611=ORIENTED_EDGE('',*,*,#407,.T.);
#612=ORIENTED_EDGE('',*,*,#410,.T.);
#613=ORIENTED_EDGE('',*,*,#413,.T.);
#614=ORIENTED_EDGE('',*,*,#417,.T.);
#615=CYLINDRICAL_SURFACE('',#692,1.2295);
#616=CYLINDRICAL_SURFACE('',#695,1.2295);
#617=CYLINDRICAL_SURFACE('',#698,1.2295);
#618=CYLINDRICAL_SURFACE('',#701,1.2295);
#619=CYLINDRICAL_SURFACE('',#706,1.);
#620=CYLINDRICAL_SURFACE('',#710,1.);
#621=CYLINDRICAL_SURFACE('',#714,1.);
#622=CYLINDRICAL_SURFACE('',#718,1.);
#623=CYLINDRICAL_SURFACE('',#722,1.);
#624=CYLINDRICAL_SURFACE('',#726,1.);
#625=CYLINDRICAL_SURFACE('',#728,1.2295);
#626=CYLINDRICAL_SURFACE('',#731,1.2295);
#627=CYLINDRICAL_SURFACE('',#734,1.2295);
#628=CYLINDRICAL_SURFACE('',#737,1.2295);
#629=CYLINDRICAL_SURFACE('',#740,1.2295);
#630=CYLINDRICAL_SURFACE('',#743,1.2295);
#631=CYLINDRICAL_SURFACE('',#748,1.55);
#632=CYLINDRICAL_SURFACE('',#752,1.55);
#633=ADVANCED_FACE('',(#61),#615,.F.);
#634=ADVANCED_FACE('',(#62),#616,.F.);
#635=ADVANCED_FACE('',(#63),#617,.F.);
#636=ADVANCED_FACE('',(#64),#618,.F.);
#637=ADVANCED_FACE('',(#65),#53,.F.);
#638=ADVANCED_FACE('',(#66),#619,.F.);
#639=ADVANCED_FACE('',(#67),#54,.F.);
#640=ADVANCED_FACE('',(#68),#620,.F.);
#641=ADVANCED_FACE('',(#69),#55,.F.);
#642=ADVANCED_FACE('',(#70),#621,.F.);
#643=ADVANCED_FACE('',(#71),#56,.F.);
#644=ADVANCED_FACE('',(#72),#622,.F.);
#645=ADVANCED_FACE('',(#73),#57,.F.);
#646=ADVANCED_FACE('',(#74),#623,.F.);
#647=ADVANCED_FACE('',(#75),#58,.F.);
#648=ADVANCED_FACE('',(#76),#624,.F.);
#649=ADVANCED_FACE('',(#77),#625,.F.);
#650=ADVANCED_FACE('',(#78),#626,.F.);
#651=ADVANCED_FACE('',(#79),#627,.F.);
#652=ADVANCED_FACE('',(#80),#628,.F.);
#653=ADVANCED_FACE('',(#81),#629,.F.);
#654=ADVANCED_FACE('',(#82),#630,.F.);
#655=ADVANCED_FACE('',(#83),#59,.F.);
#656=ADVANCED_FACE('',(#84),#631,.F.);
#657=ADVANCED_FACE('',(#85),#60,.F.);
#658=ADVANCED_FACE('',(#86),#632,.F.);
#659=ADVANCED_FACE('',(#87),#43,.F.);
#660=ADVANCED_FACE('',(#88),#44,.F.);
#661=ADVANCED_FACE('',(#89),#45,.F.);
#662=ADVANCED_FACE('',(#90),#46,.F.);
#663=ADVANCED_FACE('',(#91),#47,.T.);
#664=ADVANCED_FACE('',(#92),#48,.T.);
#665=ADVANCED_FACE('',(#93),#49,.T.);
#666=ADVANCED_FACE('',(#94),#50,.T.);
#667=ADVANCED_FACE('',(#95,#15,#16,#17,#18,#19,#20,#21,#22,#23,#24,#25,
#26,#27,#28,#29,#30),#51,.T.);
#668=ADVANCED_FACE('',(#96,#31,#32,#33,#34,#35,#36,#37,#38,#39,#40,#41,
#42),#52,.T.);
#669=CLOSED_SHELL('',(#633,#634,#635,#636,#637,#638,#639,#640,#641,#642,
#643,#644,#645,#646,#647,#648,#649,#650,#651,#652,#653,#654,#655,#656,#657,
#658,#659,#660,#661,#662,#663,#664,#665,#666,#667,#668));
#670=DERIVED_UNIT_ELEMENT(#673,1.);
#671=DERIVED_UNIT_ELEMENT(#1148,-3.);
#672=DIMENSIONAL_EXPONENTS(1.,0.,0.,0.,0.,0.,0.);
#673=(
CONVERSION_BASED_UNIT('gram',#675)
MASS_UNIT()
NAMED_UNIT(#672)
);
#674=(
MASS_UNIT()
NAMED_UNIT(*)
SI_UNIT(.KILO.,.GRAM.)
);
#675=MASS_MEASURE_WITH_UNIT(MASS_MEASURE(0.001),#674);
#676=DERIVED_UNIT((#670,#671));
#677=MEASURE_REPRESENTATION_ITEM('density measure',
POSITIVE_RATIO_MEASURE(2.7),#676);
#678=PROPERTY_DEFINITION_REPRESENTATION(#683,#680);
#679=PROPERTY_DEFINITION_REPRESENTATION(#684,#681);
#680=REPRESENTATION('material name',(#682),#1145);
#681=REPRESENTATION('density',(#677),#1145);
#682=DESCRIPTIVE_REPRESENTATION_ITEM('Aluminum 6061','Aluminum 6061');
#683=PROPERTY_DEFINITION('material property','material name',#1155);
#684=PROPERTY_DEFINITION('material property','density of part',#1155);
#685=DATE_TIME_ROLE('creation_date');
#686=APPLIED_DATE_AND_TIME_ASSIGNMENT(#687,#685,(#1155));
#687=DATE_AND_TIME(#688,#689);
#688=CALENDAR_DATE(2021,8,3);
#689=LOCAL_TIME(0,0,0.,#690);
#690=COORDINATED_UNIVERSAL_TIME_OFFSET(0,0,.BEHIND.);
#691=AXIS2_PLACEMENT_3D('placement',#960,#764,#765);
#692=AXIS2_PLACEMENT_3D('',#961,#766,#767);
#693=AXIS2_PLACEMENT_3D('',#963,#768,#769);
#694=AXIS2_PLACEMENT_3D('',#966,#771,#772);
#695=AXIS2_PLACEMENT_3D('',#967,#773,#774);
#696=AXIS2_PLACEMENT_3D('',#969,#775,#776);
#697=AXIS2_PLACEMENT_3D('',#972,#778,#779);
#698=AXIS2_PLACEMENT_3D('',#973,#780,#781);
#699=AXIS2_PLACEMENT_3D('',#975,#782,#783);
#700=AXIS2_PLACEMENT_3D('',#978,#785,#786);
#701=AXIS2_PLACEMENT_3D('',#979,#787,#788);
#702=AXIS2_PLACEMENT_3D('',#981,#789,#790);
#703=AXIS2_PLACEMENT_3D('',#984,#792,#793);
#704=AXIS2_PLACEMENT_3D('',#985,#794,#795);
#705=AXIS2_PLACEMENT_3D('',#987,#796,#797);
#706=AXIS2_PLACEMENT_3D('',#990,#799,#800);
#707=AXIS2_PLACEMENT_3D('',#992,#801,#802);
#708=AXIS2_PLACEMENT_3D('',#994,#804,#805);
#709=AXIS2_PLACEMENT_3D('',#996,#806,#807);
#710=AXIS2_PLACEMENT_3D('',#999,#809,#810);
#711=AXIS2_PLACEMENT_3D('',#1001,#811,#812);
#712=AXIS2_PLACEMENT_3D('',#1003,#814,#815);
#713=AXIS2_PLACEMENT_3D('',#1005,#816,#817);
#714=AXIS2_PLACEMENT_3D('',#1008,#819,#820);
#715=AXIS2_PLACEMENT_3D('',#1010,#821,#822);
#716=AXIS2_PLACEMENT_3D('',#1012,#824,#825);
#717=AXIS2_PLACEMENT_3D('',#1014,#826,#827);
#718=AXIS2_PLACEMENT_3D('',#1017,#829,#830);
#719=AXIS2_PLACEMENT_3D('',#1019,#831,#832);
#720=AXIS2_PLACEMENT_3D('',#1021,#834,#835);
#721=AXIS2_PLACEMENT_3D('',#1023,#836,#837);
#722=AXIS2_PLACEMENT_3D('',#1026,#839,#840);
#723=AXIS2_PLACEMENT_3D('',#1028,#841,#842);
#724=AXIS2_PLACEMENT_3D('',#1030,#844,#845);
#725=AXIS2_PLACEMENT_3D('',#1032,#846,#847);
#726=AXIS2_PLACEMENT_3D('',#1035,#849,#850);
#727=AXIS2_PLACEMENT_3D('',#1037,#851,#852);
#728=AXIS2_PLACEMENT_3D('',#1039,#854,#855);
#729=AXIS2_PLACEMENT_3D('',#1041,#856,#857);
#730=AXIS2_PLACEMENT_3D('',#1044,#859,#860);
#731=AXIS2_PLACEMENT_3D('',#1045,#861,#862);
#732=AXIS2_PLACEMENT_3D('',#1047,#863,#864);
#733=AXIS2_PLACEMENT_3D('',#1050,#866,#867);
#734=AXIS2_PLACEMENT_3D('',#1051,#868,#869);
#735=AXIS2_PLACEMENT_3D('',#1053,#870,#871);
#736=AXIS2_PLACEMENT_3D('',#1056,#873,#874);
#737=AXIS2_PLACEMENT_3D('',#1057,#875,#876);
#738=AXIS2_PLACEMENT_3D('',#1059,#877,#878);
#739=AXIS2_PLACEMENT_3D('',#1062,#880,#881);
#740=AXIS2_PLACEMENT_3D('',#1063,#882,#883);
#741=AXIS2_PLACEMENT_3D('',#1065,#884,#885);
#742=AXIS2_PLACEMENT_3D('',#1068,#887,#888);
#743=AXIS2_PLACEMENT_3D('',#1069,#889,#890);
#744=AXIS2_PLACEMENT_3D('',#1071,#891,#892);
#745=AXIS2_PLACEMENT_3D('',#1074,#894,#895);
#746=AXIS2_PLACEMENT_3D('',#1075,#896,#897);
#747=AXIS2_PLACEMENT_3D('',#1077,#898,#899);
#748=AXIS2_PLACEMENT_3D('',#1080,#901,#902);
#749=AXIS2_PLACEMENT_3D('',#1082,#903,#904);
#750=AXIS2_PLACEMENT_3D('',#1084,#906,#907);
#751=AXIS2_PLACEMENT_3D('',#1086,#908,#909);
#752=AXIS2_PLACEMENT_3D('',#1089,#911,#912);
#753=AXIS2_PLACEMENT_3D('',#1091,#913,#914);
#754=AXIS2_PLACEMENT_3D('',#1093,#916,#917);
#755=AXIS2_PLACEMENT_3D('',#1102,#922,#923);
#756=AXIS2_PLACEMENT_3D('',#1108,#927,#928);
#757=AXIS2_PLACEMENT_3D('',#1117,#933,#934);
#758=AXIS2_PLACEMENT_3D('',#1123,#938,#939);
#759=AXIS2_PLACEMENT_3D('',#1129,#943,#944);
#760=AXIS2_PLACEMENT_3D('',#1134,#948,#949);
#761=AXIS2_PLACEMENT_3D('',#1138,#952,#953);
#762=AXIS2_PLACEMENT_3D('',#1141,#956,#957);
#763=AXIS2_PLACEMENT_3D('',#1142,#958,#959);
#764=DIRECTION('axis',(0.,0.,1.));
#765=DIRECTION('refdir',(1.,0.,0.));
#766=DIRECTION('center_axis',(0.,1.,0.));
#767=DIRECTION('ref_axis',(1.,0.,0.));
#768=DIRECTION('center_axis',(0.,-1.,0.));
#769=DIRECTION('ref_axis',(1.,0.,0.));
#770=DIRECTION('',(0.,-1.,0.));
#771=DIRECTION('center_axis',(0.,1.,0.));
#772=DIRECTION('ref_axis',(1.,0.,0.));
#773=DIRECTION('center_axis',(0.,1.,0.));
#774=DIRECTION('ref_axis',(1.,0.,0.));
#775=DIRECTION('center_axis',(0.,-1.,0.));
#776=DIRECTION('ref_axis',(1.,0.,0.));
#777=DIRECTION('',(0.,-1.,0.));
#778=DIRECTION('center_axis',(0.,1.,0.));
#779=DIRECTION('ref_axis',(1.,0.,0.));
#780=DIRECTION('center_axis',(0.,1.,0.));
#781=DIRECTION('ref_axis',(1.,0.,0.));
#782=DIRECTION('center_axis',(0.,-1.,0.));
#783=DIRECTION('ref_axis',(1.,0.,0.));
#784=DIRECTION('',(0.,-1.,0.));
#785=DIRECTION('center_axis',(0.,1.,0.));
#786=DIRECTION('ref_axis',(1.,0.,0.));
#787=DIRECTION('center_axis',(0.,1.,0.));
#788=DIRECTION('ref_axis',(1.,0.,0.));
#789=DIRECTION('center_axis',(0.,-1.,0.));
#790=DIRECTION('ref_axis',(1.,0.,0.));
#791=DIRECTION('',(0.,-1.,0.));
#792=DIRECTION('center_axis',(0.,1.,0.));
#793=DIRECTION('ref_axis',(1.,0.,0.));
#794=DIRECTION('center_axis',(0.,1.,0.));
#795=DIRECTION('ref_axis',(1.,0.,0.));
#796=DIRECTION('center_axis',(0.,1.,0.));
#797=DIRECTION('ref_axis',(1.,0.,0.));
#798=DIRECTION('',(0.857167300702112,-0.515038074910054,-1.04972719113862E-16));
#799=DIRECTION('center_axis',(0.,1.,0.));
#800=DIRECTION('ref_axis',(1.,0.,0.));
#801=DIRECTION('center_axis',(0.,-1.,0.));
#802=DIRECTION('ref_axis',(1.,0.,0.));
#803=DIRECTION('',(0.,-1.,0.));
#804=DIRECTION('center_axis',(0.,1.,0.));
#805=DIRECTION('ref_axis',(1.,0.,0.));
#806=DIRECTION('center_axis',(0.,1.,0.));
#807=DIRECTION('ref_axis',(1.,0.,0.));
#808=DIRECTION('',(0.857167300702112,-0.515038074910054,-1.04972719113862E-16));
#809=DIRECTION('center_axis',(0.,1.,0.));
#810=DIRECTION('ref_axis',(1.,0.,0.));
#811=DIRECTION('center_axis',(0.,-1.,0.));
#812=DIRECTION('ref_axis',(1.,0.,0.));
#813=DIRECTION('',(0.,-1.,0.));
#814=DIRECTION('center_axis',(0.,1.,0.));
#815=DIRECTION('ref_axis',(1.,0.,0.));
#816=DIRECTION('center_axis',(0.,1.,0.));
#817=DIRECTION('ref_axis',(1.,0.,0.));
#818=DIRECTION('',(0.857167300702112,-0.515038074910054,-1.04972719113862E-16));
#819=DIRECTION('center_axis',(0.,1.,0.));
#820=DIRECTION('ref_axis',(1.,0.,0.));
#821=DIRECTION('center_axis',(0.,-1.,0.));
#822=DIRECTION('ref_axis',(1.,0.,0.));
#823=DIRECTION('',(0.,-1.,0.));
#824=DIRECTION('center_axis',(0.,1.,0.));
#825=DIRECTION('ref_axis',(1.,0.,0.));
#826=DIRECTION('center_axis',(0.,1.,0.));
#827=DIRECTION('ref_axis',(1.,0.,0.));
#828=DIRECTION('',(0.857167300702112,-0.515038074910054,-1.04972719113862E-16));
#829=DIRECTION('center_axis',(0.,1.,0.));
#830=DIRECTION('ref_axis',(1.,0.,0.));
#831=DIRECTION('center_axis',(0.,-1.,0.));
#832=DIRECTION('ref_axis',(1.,0.,0.));
#833=DIRECTION('',(0.,-1.,0.));
#834=DIRECTION('center_axis',(0.,1.,0.));
#835=DIRECTION('ref_axis',(1.,0.,0.));
#836=DIRECTION('center_axis',(0.,1.,0.));
#837=DIRECTION('ref_axis',(1.,0.,0.));
#838=DIRECTION('',(0.857167300702112,-0.515038074910054,-1.04972719113862E-16));
#839=DIRECTION('center_axis',(0.,1.,0.));
#840=DIRECTION('ref_axis',(1.,0.,0.));
#841=DIRECTION('center_axis',(0.,-1.,0.));
#842=DIRECTION('ref_axis',(1.,0.,0.));
#843=DIRECTION('',(0.,-1.,0.));
#844=DIRECTION('center_axis',(0.,1.,0.));
#845=DIRECTION('ref_axis',(1.,0.,0.));
#846=DIRECTION('center_axis',(0.,1.,0.));
#847=DIRECTION('ref_axis',(1.,0.,0.));
#848=DIRECTION('',(0.857167300702112,-0.515038074910054,-1.04972719113862E-16));
#849=DIRECTION('center_axis',(0.,1.,0.));
#850=DIRECTION('ref_axis',(1.,0.,0.));
#851=DIRECTION('center_axis',(0.,-1.,0.));
#852=DIRECTION('ref_axis',(1.,0.,0.));
#853=DIRECTION('',(0.,-1.,0.));
#854=DIRECTION('center_axis',(0.,1.,0.));
#855=DIRECTION('ref_axis',(1.,0.,0.));
#856=DIRECTION('center_axis',(0.,-1.,0.));
#857=DIRECTION('ref_axis',(1.,0.,0.));
#858=DIRECTION('',(0.,-1.,0.));
#859=DIRECTION('center_axis',(0.,1.,0.));
#860=DIRECTION('ref_axis',(1.,0.,0.));
#861=DIRECTION('center_axis',(0.,1.,0.));
#862=DIRECTION('ref_axis',(1.,0.,0.));
#863=DIRECTION('center_axis',(0.,-1.,0.));
#864=DIRECTION('ref_axis',(1.,0.,0.));
#865=DIRECTION('',(0.,-1.,0.));
#866=DIRECTION('center_axis',(0.,1.,0.));
#867=DIRECTION('ref_axis',(1.,0.,0.));
#868=DIRECTION('center_axis',(0.,1.,0.));
#869=DIRECTION('ref_axis',(1.,0.,0.));
#870=DIRECTION('center_axis',(0.,-1.,0.));
#871=DIRECTION('ref_axis',(1.,0.,0.));
#872=DIRECTION('',(0.,-1.,0.));
#873=DIRECTION('center_axis',(0.,1.,0.));
#874=DIRECTION('ref_axis',(1.,0.,0.));
#875=DIRECTION('center_axis',(0.,1.,0.));
#876=DIRECTION('ref_axis',(1.,0.,0.));
#877=DIRECTION('center_axis',(0.,-1.,0.));
#878=DIRECTION('ref_axis',(1.,0.,0.));
#879=DIRECTION('',(0.,-1.,0.));
#880=DIRECTION('center_axis',(0.,1.,0.));
#881=DIRECTION('ref_axis',(1.,0.,0.));
#882=DIRECTION('center_axis',(0.,1.,0.));
#883=DIRECTION('ref_axis',(1.,0.,0.));
#884=DIRECTION('center_axis',(0.,-1.,0.));
#885=DIRECTION('ref_axis',(1.,0.,0.));
#886=DIRECTION('',(0.,-1.,0.));
#887=DIRECTION('center_axis',(0.,1.,0.));
#888=DIRECTION('ref_axis',(1.,0.,0.));
#889=DIRECTION('center_axis',(0.,1.,0.));
#890=DIRECTION('ref_axis',(1.,0.,0.));
#891=DIRECTION('center_axis',(0.,-1.,0.));
#892=DIRECTION('ref_axis',(1.,0.,0.));
#893=DIRECTION('',(0.,-1.,0.));
#894=DIRECTION('center_axis',(0.,1.,0.));
#895=DIRECTION('ref_axis',(1.,0.,0.));
#896=DIRECTION('center_axis',(0.,-1.,0.));
#897=DIRECTION('ref_axis',(1.,0.,0.));
#898=DIRECTION('center_axis',(0.,-1.,0.));
#899=DIRECTION('ref_axis',(1.,0.,0.));
#900=DIRECTION('',(0.857167300702112,0.515038074910054,1.04972719113862E-16));
#901=DIRECTION('center_axis',(0.,-1.,0.));
#902=DIRECTION('ref_axis',(1.,0.,0.));
#903=DIRECTION('center_axis',(0.,1.,0.));
#904=DIRECTION('ref_axis',(1.,0.,0.));
#905=DIRECTION('',(0.,1.,0.));
#906=DIRECTION('center_axis',(0.,-1.,0.));
#907=DIRECTION('ref_axis',(1.,0.,0.));
#908=DIRECTION('center_axis',(0.,-1.,0.));
#909=DIRECTION('ref_axis',(1.,0.,0.));
#910=DIRECTION('',(0.857167300702112,0.515038074910054,1.04972719113862E-16));
#911=DIRECTION('center_axis',(0.,-1.,0.));
#912=DIRECTION('ref_axis',(1.,0.,0.));
#913=DIRECTION('center_axis',(0.,1.,0.));
#914=DIRECTION('ref_axis',(1.,0.,0.));
#915=DIRECTION('',(0.,1.,0.));
#916=DIRECTION('center_axis',(0.,0.,1.));
#917=DIRECTION('ref_axis',(-1.,0.,0.));
#918=DIRECTION('',(-1.,0.,0.));
#919=DIRECTION('',(0.,1.,0.));
#920=DIRECTION('',(-1.,0.,0.));
#921=DIRECTION('',(0.,-1.,0.));
#922=DIRECTION('center_axis',(0.,-1.,0.));
#923=DIRECTION('ref_axis',(0.,0.,-1.));
#924=DIRECTION('',(3.94745964311167E-16,0.,1.));
#925=DIRECTION('',(1.,0.,-2.96059473233375E-16));
#926=DIRECTION('',(-4.28626379701574E-16,0.,-1.));
#927=DIRECTION('center_axis',(-1.20274161001059E-16,0.,-1.));
#928=DIRECTION('ref_axis',(1.,0.,-1.20274161001059E-16));
#929=DIRECTION('',(1.,0.,-1.20274161001059E-16));
#930=DIRECTION('',(0.,1.,0.));
#931=DIRECTION('',(1.,0.,-1.20274161001059E-16));
#932=DIRECTION('',(0.,-1.,0.));
#933=DIRECTION('center_axis',(0.,-1.,0.));
#934=DIRECTION('ref_axis',(0.,0.,-1.));
#935=DIRECTION('',(-1.,0.,0.));
#936=DIRECTION('',(3.94745964311167E-16,0.,1.));
#937=DIRECTION('',(-4.28626379701574E-16,0.,-1.));
#938=DIRECTION('center_axis',(-2.96059473233375E-16,0.,-1.));
#939=DIRECTION('ref_axis',(-1.,0.,2.96059473233375E-16));
#940=DIRECTION('',(0.,1.,0.));
#941=DIRECTION('',(-1.,0.,2.96059473233375E-16));
#942=DIRECTION('',(0.,1.,0.));
#943=DIRECTION('center_axis',(1.,0.,-3.94745964311167E-16));
#944=DIRECTION('ref_axis',(-3.94745964311167E-16,0.,-1.));
#945=DIRECTION('',(-3.94745964311167E-16,0.,-1.));
#946=DIRECTION('',(0.,1.,0.));
#947=DIRECTION('',(-3.94745964311167E-16,0.,-1.));
#948=DIRECTION('center_axis',(0.,0.,1.));
#949=DIRECTION('ref_axis',(1.,0.,0.));
#950=DIRECTION('',(0.,1.,0.));
#951=DIRECTION('',(1.,0.,0.));
#952=DIRECTION('center_axis',(-1.,0.,4.28626379701574E-16));
#953=DIRECTION('ref_axis',(4.28626379701574E-16,0.,1.));
#954=DIRECTION('',(4.28626379701574E-16,0.,1.));
#955=DIRECTION('',(4.28626379701574E-16,0.,1.));
#956=DIRECTION('center_axis',(0.,1.,0.));
#957=DIRECTION('ref_axis',(0.,0.,1.));
#958=DIRECTION('center_axis',(0.,-1.,0.));
#959=DIRECTION('ref_axis',(0.,0.,-1.));
#960=CARTESIAN_POINT('',(0.,0.,0.));
#961=CARTESIAN_POINT('Origin',(15.,-67.4254598925323,-7.5));
#962=CARTESIAN_POINT('',(13.7705,8.,-7.5));
#963=CARTESIAN_POINT('Origin',(15.,8.,-7.5));
#964=CARTESIAN_POINT('',(13.7705,0.,-7.5));
#965=CARTESIAN_POINT('',(13.7705,-67.4254598925323,-7.5));
#966=CARTESIAN_POINT('Origin',(15.,0.,-7.5));
#967=CARTESIAN_POINT('Origin',(45.,-67.4254598925323,-37.5));
#968=CARTESIAN_POINT('',(43.7705,8.,-37.5));
#969=CARTESIAN_POINT('Origin',(45.,8.,-37.5));
#970=CARTESIAN_POINT('',(43.7705,0.,-37.5));
#971=CARTESIAN_POINT('',(43.7705,-67.4254598925323,-37.5));
#972=CARTESIAN_POINT('Origin',(45.,0.,-37.5));
#973=CARTESIAN_POINT('Origin',(45.,-67.4254598925323,-7.5));
#974=CARTESIAN_POINT('',(43.7705,8.,-7.5));
#975=CARTESIAN_POINT('Origin',(45.,8.,-7.5));
#976=CARTESIAN_POINT('',(43.7705,0.,-7.5));
#977=CARTESIAN_POINT('',(43.7705,-67.4254598925323,-7.5));
#978=CARTESIAN_POINT('Origin',(45.,0.,-7.5));
#979=CARTESIAN_POINT('Origin',(15.,-67.4254598925323,-37.5));
#980=CARTESIAN_POINT('',(13.7705,8.,-37.5));
#981=CARTESIAN_POINT('Origin',(15.,8.,-37.5));
#982=CARTESIAN_POINT('',(13.7705,0.,-37.5));
#983=CARTESIAN_POINT('',(13.7705,-67.4254598925323,-37.5));
#984=CARTESIAN_POINT('Origin',(15.,0.,-37.5));
#985=CARTESIAN_POINT('Origin',(45.,2.69956969048622,-26.83));
#986=CARTESIAN_POINT('',(44.,3.,-26.83));
#987=CARTESIAN_POINT('Origin',(45.,3.,-26.83));
#988=CARTESIAN_POINT('',(45.,2.39913938097244,-26.83));
#989=CARTESIAN_POINT('',(44.5,2.69956969048622,-26.83));
#990=CARTESIAN_POINT('Origin',(45.,5.5,-26.83));
#991=CARTESIAN_POINT('',(44.,8.,-26.83));
#992=CARTESIAN_POINT('Origin',(45.,8.,-26.83));
#993=CARTESIAN_POINT('',(44.,5.5,-26.83));
#994=CARTESIAN_POINT('Origin',(15.,2.69956969048622,-26.83));
#995=CARTESIAN_POINT('',(14.,3.,-26.83));
#996=CARTESIAN_POINT('Origin',(15.,3.,-26.83));
#997=CARTESIAN_POINT('',(15.,2.39913938097244,-26.83));
#998=CARTESIAN_POINT('',(14.5,2.69956969048622,-26.83));
#999=CARTESIAN_POINT('Origin',(15.,5.5,-26.83));
#1000=CARTESIAN_POINT('',(14.,8.,-26.83));
#1001=CARTESIAN_POINT('Origin',(15.,8.,-26.83));
#1002=CARTESIAN_POINT('',(14.,5.5,-26.83));
#1003=CARTESIAN_POINT('Origin',(15.,2.69956969048622,-22.5));
#1004=CARTESIAN_POINT('',(14.,3.,-22.5));
#1005=CARTESIAN_POINT('Origin',(15.,3.,-22.5));
#1006=CARTESIAN_POINT('',(15.,2.39913938097244,-22.5));
#1007=CARTESIAN_POINT('',(14.5,2.69956969048622,-22.5));
#1008=CARTESIAN_POINT('Origin',(15.,5.5,-22.5));
#1009=CARTESIAN_POINT('',(14.,8.,-22.5));
#1010=CARTESIAN_POINT('Origin',(15.,8.,-22.5));
#1011=CARTESIAN_POINT('',(14.,5.5,-22.5));
#1012=CARTESIAN_POINT('Origin',(45.,2.69956969048622,-22.5));
#1013=CARTESIAN_POINT('',(44.,3.,-22.5));
#1014=CARTESIAN_POINT('Origin',(45.,3.,-22.5));
#1015=CARTESIAN_POINT('',(45.,2.39913938097244,-22.5));
#1016=CARTESIAN_POINT('',(44.5,2.69956969048622,-22.5));
#1017=CARTESIAN_POINT('Origin',(45.,5.5,-22.5));
#1018=CARTESIAN_POINT('',(44.,8.,-22.5));
#1019=CARTESIAN_POINT('Origin',(45.,8.,-22.5));
#1020=CARTESIAN_POINT('',(44.,5.5,-22.5));
#1021=CARTESIAN_POINT('Origin',(15.,2.69956969048622,-18.17));
#1022=CARTESIAN_POINT('',(14.,3.,-18.17));
#1023=CARTESIAN_POINT('Origin',(15.,3.,-18.17));
#1024=CARTESIAN_POINT('',(15.,2.39913938097244,-18.17));
#1025=CARTESIAN_POINT('',(14.5,2.69956969048622,-18.17));
#1026=CARTESIAN_POINT('Origin',(15.,5.5,-18.17));
#1027=CARTESIAN_POINT('',(14.,8.,-18.17));
#1028=CARTESIAN_POINT('Origin',(15.,8.,-18.17));
#1029=CARTESIAN_POINT('',(14.,5.5,-18.17));
#1030=CARTESIAN_POINT('Origin',(45.,2.69956969048622,-18.17));
#1031=CARTESIAN_POINT('',(44.,3.,-18.17));
#1032=CARTESIAN_POINT('Origin',(45.,3.,-18.17));
#1033=CARTESIAN_POINT('',(45.,2.39913938097244,-18.17));
#1034=CARTESIAN_POINT('',(44.5,2.69956969048622,-18.17));
#1035=CARTESIAN_POINT('Origin',(45.,5.5,-18.17));
#1036=CARTESIAN_POINT('',(44.,8.,-18.17));
#1037=CARTESIAN_POINT('Origin',(45.,8.,-18.17));
#1038=CARTESIAN_POINT('',(44.,5.5,-18.17));
#1039=CARTESIAN_POINT('Origin',(56.5,3.6,-22.5));
#1040=CARTESIAN_POINT('',(55.2705,8.,-22.5));
#1041=CARTESIAN_POINT('Origin',(56.5,8.,-22.5));
#1042=CARTESIAN_POINT('',(55.2705,0.,-22.5));
#1043=CARTESIAN_POINT('',(55.2705,3.6,-22.5));
#1044=CARTESIAN_POINT('Origin',(56.5,0.,-22.5));
#1045=CARTESIAN_POINT('Origin',(3.49999999999999,3.6,-7.49999999999999));
#1046=CARTESIAN_POINT('',(2.27049999999999,8.,-7.49999999999999));
#1047=CARTESIAN_POINT('Origin',(3.49999999999999,8.,-7.49999999999999));
#1048=CARTESIAN_POINT('',(2.27049999999999,0.,-7.49999999999999));
#1049=CARTESIAN_POINT('',(2.27049999999999,3.6,-7.49999999999999));
#1050=CARTESIAN_POINT('Origin',(3.49999999999999,0.,-7.49999999999999));
#1051=CARTESIAN_POINT('Origin',(3.49999999999998,3.6,-37.5));
#1052=CARTESIAN_POINT('',(2.27049999999998,8.,-37.5));
#1053=CARTESIAN_POINT('Origin',(3.49999999999998,8.,-37.5));
#1054=CARTESIAN_POINT('',(2.27049999999998,0.,-37.5));
#1055=CARTESIAN_POINT('',(2.27049999999998,3.6,-37.5));
#1056=CARTESIAN_POINT('Origin',(3.49999999999998,0.,-37.5));
#1057=CARTESIAN_POINT('Origin',(3.49999999999999,3.6,-22.5));
#1058=CARTESIAN_POINT('',(2.27049999999999,8.,-22.5));
#1059=CARTESIAN_POINT('Origin',(3.49999999999999,8.,-22.5));
#1060=CARTESIAN_POINT('',(2.27049999999999,0.,-22.5));
#1061=CARTESIAN_POINT('',(2.27049999999999,3.6,-22.5));
#1062=CARTESIAN_POINT('Origin',(3.49999999999999,0.,-22.5));
#1063=CARTESIAN_POINT('Origin',(56.5,3.6,-37.5));
#1064=CARTESIAN_POINT('',(55.2705,8.,-37.5));
#1065=CARTESIAN_POINT('Origin',(56.5,8.,-37.5));
#1066=CARTESIAN_POINT('',(55.2705,0.,-37.5));
#1067=CARTESIAN_POINT('',(55.2705,3.6,-37.5));
#1068=CARTESIAN_POINT('Origin',(56.5,0.,-37.5));
#1069=CARTESIAN_POINT('Origin',(56.5,3.6,-7.49999999999999));
#1070=CARTESIAN_POINT('',(55.2705,8.,-7.49999999999999));
#1071=CARTESIAN_POINT('Origin',(56.5,8.,-7.49999999999999));
#1072=CARTESIAN_POINT('',(55.2705,0.,-7.49999999999999));
#1073=CARTESIAN_POINT('',(55.2705,3.6,-7.49999999999999));
#1074=CARTESIAN_POINT('Origin',(56.5,0.,-7.49999999999999));
#1075=CARTESIAN_POINT('Origin',(30.,6.46566697974636,-37.5));
#1076=CARTESIAN_POINT('',(28.45,6.,-37.5));
#1077=CARTESIAN_POINT('Origin',(30.,6.,-37.5));
#1078=CARTESIAN_POINT('',(30.,6.93133395949272,-37.5));
#1079=CARTESIAN_POINT('',(29.225,6.46566697974636,-37.5));
#1080=CARTESIAN_POINT('Origin',(30.,3.,-37.5));
#1081=CARTESIAN_POINT('',(28.45,0.,-37.5));
#1082=CARTESIAN_POINT('Origin',(30.,0.,-37.5));
#1083=CARTESIAN_POINT('',(28.45,3.,-37.5));
#1084=CARTESIAN_POINT('Origin',(30.,6.46566697974636,-7.5));
#1085=CARTESIAN_POINT('',(28.45,6.,-7.5));
#1086=CARTESIAN_POINT('Origin',(30.,6.,-7.5));
#1087=CARTESIAN_POINT('',(30.,6.93133395949272,-7.5));
#1088=CARTESIAN_POINT('',(29.225,6.46566697974636,-7.5));
#1089=CARTESIAN_POINT('Origin',(30.,3.,-7.5));
#1090=CARTESIAN_POINT('',(28.45,0.,-7.5));
#1091=CARTESIAN_POINT('Origin',(30.,0.,-7.5));
#1092=CARTESIAN_POINT('',(28.45,3.,-7.5));
#1093=CARTESIAN_POINT('Origin',(60.,8.,-42.4));
#1094=CARTESIAN_POINT('',(60.,8.,-42.4));
#1095=CARTESIAN_POINT('',(-1.88105748349033E-14,8.,-42.4));
#1096=CARTESIAN_POINT('',(45.,8.,-42.4));
#1097=CARTESIAN_POINT('',(60.,5.5,-42.4));
#1098=CARTESIAN_POINT('',(60.,4.,-42.4));
#1099=CARTESIAN_POINT('',(-1.77635683940025E-14,5.5,-42.4));
#1100=CARTESIAN_POINT('',(-1.77635683940025E-14,5.5,-42.4));
#1101=CARTESIAN_POINT('',(-1.77635683940025E-14,4.,-42.4));
#1102=CARTESIAN_POINT('Origin',(30.,5.5,-43.7));
#1103=CARTESIAN_POINT('',(60.,5.5,-45.));
#1104=CARTESIAN_POINT('',(60.,5.5,-21.85));
#1105=CARTESIAN_POINT('',(-1.77635683940025E-14,5.5,-45.));
#1106=CARTESIAN_POINT('',(45.,5.5,-45.));
#1107=CARTESIAN_POINT('',(-1.99840144432528E-14,5.5,-44.35));
#1108=CARTESIAN_POINT('Origin',(-8.88178419700125E-15,8.,-2.6));
#1109=CARTESIAN_POINT('',(-1.13792005554998E-14,8.,-2.6));
#1110=CARTESIAN_POINT('',(60.,8.,-2.6));
#1111=CARTESIAN_POINT('',(15.,8.,-2.6));
#1112=CARTESIAN_POINT('',(-1.13792005554998E-14,5.5,-2.6));
#1113=CARTESIAN_POINT('',(-1.11442858722409E-15,4.,-2.6));
#1114=CARTESIAN_POINT('',(60.,5.5,-2.6));
#1115=CARTESIAN_POINT('',(60.,5.5,-2.6));
#1116=CARTESIAN_POINT('',(60.,4.,-2.6));
#1117=CARTESIAN_POINT('Origin',(30.,5.5,-1.3));
#1118=CARTESIAN_POINT('',(60.,5.5,0.));
#1119=CARTESIAN_POINT('',(0.,5.5,0.));
#1120=CARTESIAN_POINT('',(15.,5.5,0.));
#1121=CARTESIAN_POINT('',(60.,5.5,-0.650000000000006));
#1122=CARTESIAN_POINT('',(-1.11022302462516E-14,5.5,-23.15));
#1123=CARTESIAN_POINT('Origin',(60.,0.,-45.));
#1124=CARTESIAN_POINT('',(60.,0.,-45.));
#1125=CARTESIAN_POINT('',(60.,0.,-45.));
#1126=CARTESIAN_POINT('',(-1.92881870865708E-14,0.,-45.));
#1127=CARTESIAN_POINT('',(60.,0.,-45.));
#1128=CARTESIAN_POINT('',(-1.92881870865708E-14,0.,-45.));
#1129=CARTESIAN_POINT('Origin',(60.,0.,0.));
#1130=CARTESIAN_POINT('',(60.,8.,0.));
#1131=CARTESIAN_POINT('',(60.,0.,0.));
#1132=CARTESIAN_POINT('',(60.,0.,0.));
#1133=CARTESIAN_POINT('',(60.,0.,0.));
#1134=CARTESIAN_POINT('Origin',(0.,0.,0.));
#1135=CARTESIAN_POINT('',(0.,0.,0.));
#1136=CARTESIAN_POINT('',(0.,0.,0.));
#1137=CARTESIAN_POINT('',(0.,0.,0.));
#1138=CARTESIAN_POINT('Origin',(-1.92881870865708E-14,0.,-45.));
#1139=CARTESIAN_POINT('',(-1.92881870865708E-14,0.,-45.));
#1140=CARTESIAN_POINT('',(-1.92881870865708E-14,8.,-45.));
#1141=CARTESIAN_POINT('Origin',(30.,8.,-22.5));
#1142=CARTESIAN_POINT('Origin',(30.,0.,-22.5));
#1143=UNCERTAINTY_MEASURE_WITH_UNIT(LENGTH_MEASURE(0.01),#1147,
'DISTANCE_ACCURACY_VALUE',
'Maximum model space distance between geometric entities at asserted c
onnectivities');
#1144=UNCERTAINTY_MEASURE_WITH_UNIT(LENGTH_MEASURE(0.01),#1147,
'DISTANCE_ACCURACY_VALUE',
'Maximum model space distance between geometric entities at asserted c
onnectivities');
#1145=(
GEOMETRIC_REPRESENTATION_CONTEXT(3)
GLOBAL_UNCERTAINTY_ASSIGNED_CONTEXT((#1143))
GLOBAL_UNIT_ASSIGNED_CONTEXT((#1147,#1149,#1150))
REPRESENTATION_CONTEXT('','3D')
);
#1146=(
GEOMETRIC_REPRESENTATION_CONTEXT(3)
GLOBAL_UNCERTAINTY_ASSIGNED_CONTEXT((#1144))
GLOBAL_UNIT_ASSIGNED_CONTEXT((#1147,#1149,#1150))
REPRESENTATION_CONTEXT('','3D')
);
#1147=(
LENGTH_UNIT()
NAMED_UNIT(*)
SI_UNIT(.MILLI.,.METRE.)
);
#1148=(
LENGTH_UNIT()
NAMED_UNIT(*)
SI_UNIT(.CENTI.,.METRE.)
);
#1149=(
NAMED_UNIT(*)
PLANE_ANGLE_UNIT()
SI_UNIT($,.RADIAN.)
);
#1150=(
NAMED_UNIT(*)
SI_UNIT($,.STERADIAN.)
SOLID_ANGLE_UNIT()
);
#1151=SHAPE_DEFINITION_REPRESENTATION(#1152,#1153);
#1152=PRODUCT_DEFINITION_SHAPE('',$,#1155);
#1153=SHAPE_REPRESENTATION('',(#691),#1145);
#1154=PRODUCT_DEFINITION_CONTEXT('part definition',#1159,'design');
#1155=PRODUCT_DEFINITION('HJS_EL_CAM_02',
'indexingMount_mobilePlate_rev0',#1156,#1154);
#1156=PRODUCT_DEFINITION_FORMATION('0',$,#1161);
#1157=PRODUCT_RELATED_PRODUCT_CATEGORY('indexingMount_mobilePlate_rev0',
'indexingMount_mobilePlate_rev0',(#1161));
#1158=APPLICATION_PROTOCOL_DEFINITION('international standard',
'automotive_design',2009,#1159);
#1159=APPLICATION_CONTEXT(
'Core Data for Automotive Mechanical Design Process');
#1160=PRODUCT_CONTEXT('part definition',#1159,'mechanical');
#1161=PRODUCT('HJS_EL_CAM_02','indexingMount_mobilePlate_rev0',
'Mobile Plate',(#1160));
#1162=PRESENTATION_STYLE_ASSIGNMENT((#1164));
#1163=PRESENTATION_STYLE_ASSIGNMENT((#1165));
#1164=SURFACE_STYLE_USAGE(.BOTH.,#1170);
#1165=SURFACE_STYLE_USAGE(.BOTH.,#1171);
#1166=SURFACE_STYLE_RENDERING_WITH_PROPERTIES($,#1178,(#1168));
#1167=SURFACE_STYLE_RENDERING_WITH_PROPERTIES($,#1179,(#1169));
#1168=SURFACE_STYLE_TRANSPARENT(0.);
#1169=SURFACE_STYLE_TRANSPARENT(0.);
#1170=SURFACE_SIDE_STYLE('',(#1172,#1166));
#1171=SURFACE_SIDE_STYLE('',(#1173,#1167));
#1172=SURFACE_STYLE_FILL_AREA(#1174);
#1173=SURFACE_STYLE_FILL_AREA(#1175);
#1174=FILL_AREA_STYLE('',(#1176));
#1175=FILL_AREA_STYLE('',(#1177));
#1176=FILL_AREA_STYLE_COLOUR('',#1178);
#1177=FILL_AREA_STYLE_COLOUR('',#1179);
#1178=COLOUR_RGB('',0.996078431372549,0.996078431372549,1.);
#1179=COLOUR_RGB('',0.698039215686274,0.698039215686274,0.698039215686274);
ENDSEC;
END-ISO-10303-21;
