ISO-10303-21;
HEADER;
/* Generated by software containing ST-Developer
 * from STEP Tools, Inc. (www.steptools.com) 
 */

FILE_DESCRIPTION(
/* description */ ('Alignment Rail With Mounting Holes'),
/* implementation_level */ '2;1');

FILE_NAME(
/* name */ 
'C:\\Users\\Augustin Zaininger\\microsoftAreCunts\\storage\\Oxford\\eq
uipmentProjects\\LED_glovebox_integratingSphere\\indexing_x-y_stage\\i
ndexingMount_rail_mount_rev0.stp',
/* time_stamp */ '2022-11-15T20:07:58+00:00',
/* author */ ('Augustin Zaininger'),
/* organization */ (''),
/* preprocessor_version */ 'ST-DEVELOPER v18.1',
/* originating_system */ 'Autodesk Inventor 2022',
/* authorisation */ '');

FILE_SCHEMA (('AUTOMOTIVE_DESIGN { 1 0 10303 214 3 1 1 }'));
ENDSEC;

DATA;
#10=MECHANICAL_DESIGN_GEOMETRIC_PRESENTATION_REPRESENTATION('',(#13),#528);
#11=SHAPE_REPRESENTATION_RELATIONSHIP('SRR','None',#535,#12);
#12=ADVANCED_BREP_SHAPE_REPRESENTATION('',(#14),#527);
#13=STYLED_ITEM('',(#545),#14);
#14=MANIFOLD_SOLID_BREP('Solid1',#306);
#15=FACE_BOUND('',#61,.T.);
#16=FACE_BOUND('',#62,.T.);
#17=FACE_BOUND('',#63,.T.);
#18=FACE_BOUND('',#65,.T.);
#19=FACE_BOUND('',#66,.T.);
#20=FACE_BOUND('',#70,.T.);
#21=FACE_BOUND('',#71,.T.);
#22=FACE_BOUND('',#72,.T.);
#23=FACE_BOUND('',#74,.T.);
#24=FACE_BOUND('',#75,.T.);
#25=PLANE('',#350);
#26=PLANE('',#351);
#27=PLANE('',#352);
#28=PLANE('',#353);
#29=PLANE('',#354);
#30=PLANE('',#355);
#31=PLANE('',#356);
#32=PLANE('',#357);
#33=CONICAL_SURFACE('',#335,2.425,0.785398163397448);
#34=CONICAL_SURFACE('',#340,2.425,0.785398163397448);
#35=CONICAL_SURFACE('',#345,2.425,0.785398163397448);
#36=FACE_OUTER_BOUND('',#52,.T.);
#37=FACE_OUTER_BOUND('',#53,.T.);
#38=FACE_OUTER_BOUND('',#54,.T.);
#39=FACE_OUTER_BOUND('',#55,.T.);
#40=FACE_OUTER_BOUND('',#56,.T.);
#41=FACE_OUTER_BOUND('',#57,.T.);
#42=FACE_OUTER_BOUND('',#58,.T.);
#43=FACE_OUTER_BOUND('',#59,.T.);
#44=FACE_OUTER_BOUND('',#60,.T.);
#45=FACE_OUTER_BOUND('',#64,.T.);
#46=FACE_OUTER_BOUND('',#67,.T.);
#47=FACE_OUTER_BOUND('',#68,.T.);
#48=FACE_OUTER_BOUND('',#69,.T.);
#49=FACE_OUTER_BOUND('',#73,.T.);
#50=FACE_OUTER_BOUND('',#76,.T.);
#51=FACE_OUTER_BOUND('',#77,.T.);
#52=EDGE_LOOP('',(#207,#208,#209,#210));
#53=EDGE_LOOP('',(#211,#212,#213,#214));
#54=EDGE_LOOP('',(#215,#216,#217,#218));
#55=EDGE_LOOP('',(#219,#220,#221,#222));
#56=EDGE_LOOP('',(#223,#224,#225,#226));
#57=EDGE_LOOP('',(#227,#228,#229,#230));
#58=EDGE_LOOP('',(#231,#232,#233,#234));
#59=EDGE_LOOP('',(#235,#236,#237,#238));
#60=EDGE_LOOP('',(#239,#240,#241,#242));
#61=EDGE_LOOP('',(#243));
#62=EDGE_LOOP('',(#244));
#63=EDGE_LOOP('',(#245));
#64=EDGE_LOOP('',(#246,#247,#248,#249));
#65=EDGE_LOOP('',(#250));
#66=EDGE_LOOP('',(#251));
#67=EDGE_LOOP('',(#252,#253,#254,#255));
#68=EDGE_LOOP('',(#256,#257,#258,#259));
#69=EDGE_LOOP('',(#260,#261,#262,#263));
#70=EDGE_LOOP('',(#264));
#71=EDGE_LOOP('',(#265));
#72=EDGE_LOOP('',(#266));
#73=EDGE_LOOP('',(#267,#268,#269,#270));
#74=EDGE_LOOP('',(#271));
#75=EDGE_LOOP('',(#272));
#76=EDGE_LOOP('',(#273,#274,#275,#276,#277,#278));
#77=EDGE_LOOP('',(#279,#280,#281,#282,#283,#284));
#78=LINE('',#449,#104);
#79=LINE('',#455,#105);
#80=LINE('',#461,#106);
#81=LINE('',#465,#107);
#82=LINE('',#471,#108);
#83=LINE('',#475,#109);
#84=LINE('',#481,#110);
#85=LINE('',#485,#111);
#86=LINE('',#490,#112);
#87=LINE('',#492,#113);
#88=LINE('',#494,#114);
#89=LINE('',#495,#115);
#90=LINE('',#498,#116);
#91=LINE('',#500,#117);
#92=LINE('',#501,#118);
#93=LINE('',#504,#119);
#94=LINE('',#506,#120);
#95=LINE('',#507,#121);
#96=LINE('',#510,#122);
#97=LINE('',#512,#123);
#98=LINE('',#513,#124);
#99=LINE('',#516,#125);
#100=LINE('',#518,#126);
#101=LINE('',#519,#127);
#102=LINE('',#521,#128);
#103=LINE('',#522,#129);
#104=VECTOR('',#364,1.2295);
#105=VECTOR('',#371,1.2295);
#106=VECTOR('',#378,2.425);
#107=VECTOR('',#383,1.7);
#108=VECTOR('',#390,2.425);
#109=VECTOR('',#395,1.7);
#110=VECTOR('',#402,2.425);
#111=VECTOR('',#407,1.7);
#112=VECTOR('',#412,10.);
#113=VECTOR('',#413,10.);
#114=VECTOR('',#414,10.);
#115=VECTOR('',#415,10.);
#116=VECTOR('',#418,10.);
#117=VECTOR('',#419,10.);
#118=VECTOR('',#420,10.);
#119=VECTOR('',#423,10.);
#120=VECTOR('',#424,10.);
#121=VECTOR('',#425,10.);
#122=VECTOR('',#428,10.);
#123=VECTOR('',#429,10.);
#124=VECTOR('',#430,10.);
#125=VECTOR('',#433,10.);
#126=VECTOR('',#434,10.);
#127=VECTOR('',#435,10.);
#128=VECTOR('',#438,10.);
#129=VECTOR('',#439,10.);
#130=CIRCLE('',#330,1.2295);
#131=CIRCLE('',#331,1.2295);
#132=CIRCLE('',#333,1.2295);
#133=CIRCLE('',#334,1.2295);
#134=CIRCLE('',#336,3.15);
#135=CIRCLE('',#337,1.7);
#136=CIRCLE('',#339,1.7);
#137=CIRCLE('',#341,3.15);
#138=CIRCLE('',#342,1.7);
#139=CIRCLE('',#344,1.7);
#140=CIRCLE('',#346,3.15);
#141=CIRCLE('',#347,1.7);
#142=CIRCLE('',#349,1.7);
#143=VERTEX_POINT('',#446);
#144=VERTEX_POINT('',#448);
#145=VERTEX_POINT('',#452);
#146=VERTEX_POINT('',#454);
#147=VERTEX_POINT('',#458);
#148=VERTEX_POINT('',#460);
#149=VERTEX_POINT('',#464);
#150=VERTEX_POINT('',#468);
#151=VERTEX_POINT('',#470);
#152=VERTEX_POINT('',#474);
#153=VERTEX_POINT('',#478);
#154=VERTEX_POINT('',#480);
#155=VERTEX_POINT('',#484);
#156=VERTEX_POINT('',#488);
#157=VERTEX_POINT('',#489);
#158=VERTEX_POINT('',#491);
#159=VERTEX_POINT('',#493);
#160=VERTEX_POINT('',#497);
#161=VERTEX_POINT('',#499);
#162=VERTEX_POINT('',#503);
#163=VERTEX_POINT('',#505);
#164=VERTEX_POINT('',#509);
#165=VERTEX_POINT('',#511);
#166=VERTEX_POINT('',#515);
#167=VERTEX_POINT('',#517);
#168=EDGE_CURVE('',#143,#143,#130,.T.);
#169=EDGE_CURVE('',#143,#144,#78,.T.);
#170=EDGE_CURVE('',#144,#144,#131,.T.);
#171=EDGE_CURVE('',#145,#145,#132,.T.);
#172=EDGE_CURVE('',#145,#146,#79,.T.);
#173=EDGE_CURVE('',#146,#146,#133,.T.);
#174=EDGE_CURVE('',#147,#147,#134,.T.);
#175=EDGE_CURVE('',#147,#148,#80,.T.);
#176=EDGE_CURVE('',#148,#148,#135,.T.);
#177=EDGE_CURVE('',#148,#149,#81,.T.);
#178=EDGE_CURVE('',#149,#149,#136,.T.);
#179=EDGE_CURVE('',#150,#150,#137,.T.);
#180=EDGE_CURVE('',#150,#151,#82,.T.);
#181=EDGE_CURVE('',#151,#151,#138,.T.);
#182=EDGE_CURVE('',#151,#152,#83,.T.);
#183=EDGE_CURVE('',#152,#152,#139,.T.);
#184=EDGE_CURVE('',#153,#153,#140,.T.);
#185=EDGE_CURVE('',#153,#154,#84,.T.);
#186=EDGE_CURVE('',#154,#154,#141,.T.);
#187=EDGE_CURVE('',#154,#155,#85,.T.);
#188=EDGE_CURVE('',#155,#155,#142,.T.);
#189=EDGE_CURVE('',#156,#157,#86,.T.);
#190=EDGE_CURVE('',#157,#158,#87,.T.);
#191=EDGE_CURVE('',#159,#158,#88,.T.);
#192=EDGE_CURVE('',#156,#159,#89,.T.);
#193=EDGE_CURVE('',#160,#156,#90,.T.);
#194=EDGE_CURVE('',#161,#159,#91,.T.);
#195=EDGE_CURVE('',#160,#161,#92,.T.);
#196=EDGE_CURVE('',#162,#160,#93,.T.);
#197=EDGE_CURVE('',#163,#161,#94,.T.);
#198=EDGE_CURVE('',#162,#163,#95,.T.);
#199=EDGE_CURVE('',#164,#162,#96,.T.);
#200=EDGE_CURVE('',#165,#163,#97,.T.);
#201=EDGE_CURVE('',#164,#165,#98,.T.);
#202=EDGE_CURVE('',#166,#164,#99,.T.);
#203=EDGE_CURVE('',#167,#165,#100,.T.);
#204=EDGE_CURVE('',#166,#167,#101,.T.);
#205=EDGE_CURVE('',#157,#166,#102,.T.);
#206=EDGE_CURVE('',#158,#167,#103,.T.);
#207=ORIENTED_EDGE('',*,*,#168,.F.);
#208=ORIENTED_EDGE('',*,*,#169,.T.);
#209=ORIENTED_EDGE('',*,*,#170,.F.);
#210=ORIENTED_EDGE('',*,*,#169,.F.);
#211=ORIENTED_EDGE('',*,*,#171,.F.);
#212=ORIENTED_EDGE('',*,*,#172,.T.);
#213=ORIENTED_EDGE('',*,*,#173,.F.);
#214=ORIENTED_EDGE('',*,*,#172,.F.);
#215=ORIENTED_EDGE('',*,*,#174,.F.);
#216=ORIENTED_EDGE('',*,*,#175,.T.);
#217=ORIENTED_EDGE('',*,*,#176,.F.);
#218=ORIENTED_EDGE('',*,*,#175,.F.);
#219=ORIENTED_EDGE('',*,*,#176,.T.);
#220=ORIENTED_EDGE('',*,*,#177,.T.);
#221=ORIENTED_EDGE('',*,*,#178,.F.);
#222=ORIENTED_EDGE('',*,*,#177,.F.);
#223=ORIENTED_EDGE('',*,*,#179,.F.);
#224=ORIENTED_EDGE('',*,*,#180,.T.);
#225=ORIENTED_EDGE('',*,*,#181,.F.);
#226=ORIENTED_EDGE('',*,*,#180,.F.);
#227=ORIENTED_EDGE('',*,*,#181,.T.);
#228=ORIENTED_EDGE('',*,*,#182,.T.);
#229=ORIENTED_EDGE('',*,*,#183,.F.);
#230=ORIENTED_EDGE('',*,*,#182,.F.);
#231=ORIENTED_EDGE('',*,*,#184,.F.);
#232=ORIENTED_EDGE('',*,*,#185,.T.);
#233=ORIENTED_EDGE('',*,*,#186,.F.);
#234=ORIENTED_EDGE('',*,*,#185,.F.);
#235=ORIENTED_EDGE('',*,*,#186,.T.);
#236=ORIENTED_EDGE('',*,*,#187,.T.);
#237=ORIENTED_EDGE('',*,*,#188,.F.);
#238=ORIENTED_EDGE('',*,*,#187,.F.);
#239=ORIENTED_EDGE('',*,*,#189,.T.);
#240=ORIENTED_EDGE('',*,*,#190,.T.);
#241=ORIENTED_EDGE('',*,*,#191,.F.);
#242=ORIENTED_EDGE('',*,*,#192,.F.);
#243=ORIENTED_EDGE('',*,*,#178,.T.);
#244=ORIENTED_EDGE('',*,*,#183,.T.);
#245=ORIENTED_EDGE('',*,*,#188,.T.);
#246=ORIENTED_EDGE('',*,*,#193,.T.);
#247=ORIENTED_EDGE('',*,*,#192,.T.);
#248=ORIENTED_EDGE('',*,*,#194,.F.);
#249=ORIENTED_EDGE('',*,*,#195,.F.);
#250=ORIENTED_EDGE('',*,*,#170,.T.);
#251=ORIENTED_EDGE('',*,*,#173,.T.);
#252=ORIENTED_EDGE('',*,*,#196,.T.);
#253=ORIENTED_EDGE('',*,*,#195,.T.);
#254=ORIENTED_EDGE('',*,*,#197,.F.);
#255=ORIENTED_EDGE('',*,*,#198,.F.);
#256=ORIENTED_EDGE('',*,*,#199,.T.);
#257=ORIENTED_EDGE('',*,*,#198,.T.);
#258=ORIENTED_EDGE('',*,*,#200,.F.);
#259=ORIENTED_EDGE('',*,*,#201,.F.);
#260=ORIENTED_EDGE('',*,*,#202,.T.);
#261=ORIENTED_EDGE('',*,*,#201,.T.);
#262=ORIENTED_EDGE('',*,*,#203,.F.);
#263=ORIENTED_EDGE('',*,*,#204,.F.);
#264=ORIENTED_EDGE('',*,*,#174,.T.);
#265=ORIENTED_EDGE('',*,*,#179,.T.);
#266=ORIENTED_EDGE('',*,*,#184,.T.);
#267=ORIENTED_EDGE('',*,*,#205,.T.);
#268=ORIENTED_EDGE('',*,*,#204,.T.);
#269=ORIENTED_EDGE('',*,*,#206,.F.);
#270=ORIENTED_EDGE('',*,*,#190,.F.);
#271=ORIENTED_EDGE('',*,*,#168,.T.);
#272=ORIENTED_EDGE('',*,*,#171,.T.);
#273=ORIENTED_EDGE('',*,*,#206,.T.);
#274=ORIENTED_EDGE('',*,*,#203,.T.);
#275=ORIENTED_EDGE('',*,*,#200,.T.);
#276=ORIENTED_EDGE('',*,*,#197,.T.);
#277=ORIENTED_EDGE('',*,*,#194,.T.);
#278=ORIENTED_EDGE('',*,*,#191,.T.);
#279=ORIENTED_EDGE('',*,*,#205,.F.);
#280=ORIENTED_EDGE('',*,*,#189,.F.);
#281=ORIENTED_EDGE('',*,*,#193,.F.);
#282=ORIENTED_EDGE('',*,*,#196,.F.);
#283=ORIENTED_EDGE('',*,*,#199,.F.);
#284=ORIENTED_EDGE('',*,*,#202,.F.);
#285=CYLINDRICAL_SURFACE('',#329,1.2295);
#286=CYLINDRICAL_SURFACE('',#332,1.2295);
#287=CYLINDRICAL_SURFACE('',#338,1.7);
#288=CYLINDRICAL_SURFACE('',#343,1.7);
#289=CYLINDRICAL_SURFACE('',#348,1.7);
#290=ADVANCED_FACE('',(#36),#285,.F.);
#291=ADVANCED_FACE('',(#37),#286,.F.);
#292=ADVANCED_FACE('',(#38),#33,.F.);
#293=ADVANCED_FACE('',(#39),#287,.F.);
#294=ADVANCED_FACE('',(#40),#34,.F.);
#295=ADVANCED_FACE('',(#41),#288,.F.);
#296=ADVANCED_FACE('',(#42),#35,.F.);
#297=ADVANCED_FACE('',(#43),#289,.F.);
#298=ADVANCED_FACE('',(#44,#15,#16,#17),#25,.T.);
#299=ADVANCED_FACE('',(#45,#18,#19),#26,.T.);
#300=ADVANCED_FACE('',(#46),#27,.T.);
#301=ADVANCED_FACE('',(#47),#28,.T.);
#302=ADVANCED_FACE('',(#48,#20,#21,#22),#29,.T.);
#303=ADVANCED_FACE('',(#49,#23,#24),#30,.T.);
#304=ADVANCED_FACE('',(#50),#31,.T.);
#305=ADVANCED_FACE('',(#51),#32,.T.);
#306=CLOSED_SHELL('',(#290,#291,#292,#293,#294,#295,#296,#297,#298,#299,
#300,#301,#302,#303,#304,#305));
#307=DERIVED_UNIT_ELEMENT(#310,1.);
#308=DERIVED_UNIT_ELEMENT(#530,-3.);
#309=DIMENSIONAL_EXPONENTS(1.,0.,0.,0.,0.,0.,0.);
#310=(
CONVERSION_BASED_UNIT('gram',#312)
MASS_UNIT()
NAMED_UNIT(#309)
);
#311=(
MASS_UNIT()
NAMED_UNIT(*)
SI_UNIT(.KILO.,.GRAM.)
);
#312=MASS_MEASURE_WITH_UNIT(MASS_MEASURE(0.001),#311);
#313=DERIVED_UNIT((#307,#308));
#314=MEASURE_REPRESENTATION_ITEM('density measure',
POSITIVE_RATIO_MEASURE(2.7),#313);
#315=PROPERTY_DEFINITION_REPRESENTATION(#320,#317);
#316=PROPERTY_DEFINITION_REPRESENTATION(#321,#318);
#317=REPRESENTATION('material name',(#319),#527);
#318=REPRESENTATION('density',(#314),#527);
#319=DESCRIPTIVE_REPRESENTATION_ITEM('Aluminum 6061','Aluminum 6061');
#320=PROPERTY_DEFINITION('material property','material name',#537);
#321=PROPERTY_DEFINITION('material property','density of part',#537);
#322=DATE_TIME_ROLE('creation_date');
#323=APPLIED_DATE_AND_TIME_ASSIGNMENT(#324,#322,(#537));
#324=DATE_AND_TIME(#325,#326);
#325=CALENDAR_DATE(2021,8,3);
#326=LOCAL_TIME(0,0,0.,#327);
#327=COORDINATED_UNIVERSAL_TIME_OFFSET(0,0,.BEHIND.);
#328=AXIS2_PLACEMENT_3D('placement',#444,#358,#359);
#329=AXIS2_PLACEMENT_3D('',#445,#360,#361);
#330=AXIS2_PLACEMENT_3D('',#447,#362,#363);
#331=AXIS2_PLACEMENT_3D('',#450,#365,#366);
#332=AXIS2_PLACEMENT_3D('',#451,#367,#368);
#333=AXIS2_PLACEMENT_3D('',#453,#369,#370);
#334=AXIS2_PLACEMENT_3D('',#456,#372,#373);
#335=AXIS2_PLACEMENT_3D('',#457,#374,#375);
#336=AXIS2_PLACEMENT_3D('',#459,#376,#377);
#337=AXIS2_PLACEMENT_3D('',#462,#379,#380);
#338=AXIS2_PLACEMENT_3D('',#463,#381,#382);
#339=AXIS2_PLACEMENT_3D('',#466,#384,#385);
#340=AXIS2_PLACEMENT_3D('',#467,#386,#387);
#341=AXIS2_PLACEMENT_3D('',#469,#388,#389);
#342=AXIS2_PLACEMENT_3D('',#472,#391,#392);
#343=AXIS2_PLACEMENT_3D('',#473,#393,#394);
#344=AXIS2_PLACEMENT_3D('',#476,#396,#397);
#345=AXIS2_PLACEMENT_3D('',#477,#398,#399);
#346=AXIS2_PLACEMENT_3D('',#479,#400,#401);
#347=AXIS2_PLACEMENT_3D('',#482,#403,#404);
#348=AXIS2_PLACEMENT_3D('',#483,#405,#406);
#349=AXIS2_PLACEMENT_3D('',#486,#408,#409);
#350=AXIS2_PLACEMENT_3D('',#487,#410,#411);
#351=AXIS2_PLACEMENT_3D('',#496,#416,#417);
#352=AXIS2_PLACEMENT_3D('',#502,#421,#422);
#353=AXIS2_PLACEMENT_3D('',#508,#426,#427);
#354=AXIS2_PLACEMENT_3D('',#514,#431,#432);
#355=AXIS2_PLACEMENT_3D('',#520,#436,#437);
#356=AXIS2_PLACEMENT_3D('',#523,#440,#441);
#357=AXIS2_PLACEMENT_3D('',#524,#442,#443);
#358=DIRECTION('axis',(0.,0.,1.));
#359=DIRECTION('refdir',(1.,0.,0.));
#360=DIRECTION('center_axis',(-1.,0.,0.));
#361=DIRECTION('ref_axis',(0.,0.,1.));
#362=DIRECTION('center_axis',(1.,0.,0.));
#363=DIRECTION('ref_axis',(0.,0.,1.));
#364=DIRECTION('',(1.,0.,0.));
#365=DIRECTION('center_axis',(-1.,-1.98254111540207E-16,0.));
#366=DIRECTION('ref_axis',(0.,0.,1.));
#367=DIRECTION('center_axis',(-1.,0.,0.));
#368=DIRECTION('ref_axis',(0.,0.,1.));
#369=DIRECTION('center_axis',(1.,0.,0.));
#370=DIRECTION('ref_axis',(0.,0.,1.));
#371=DIRECTION('',(1.,0.,0.));
#372=DIRECTION('center_axis',(-1.,-1.98254111540207E-16,0.));
#373=DIRECTION('ref_axis',(0.,0.,1.));
#374=DIRECTION('center_axis',(-1.11022302462516E-16,1.,0.));
#375=DIRECTION('ref_axis',(1.,1.11022302462516E-16,0.));
#376=DIRECTION('center_axis',(1.11022302462516E-16,-1.,0.));
#377=DIRECTION('ref_axis',(1.,1.11022302462516E-16,0.));
#378=DIRECTION('',(0.707106781186548,-0.707106781186548,-8.65956056235493E-17));
#379=DIRECTION('center_axis',(-1.11022302462516E-16,1.,0.));
#380=DIRECTION('ref_axis',(1.,1.11022302462516E-16,0.));
#381=DIRECTION('center_axis',(-1.11022302462516E-16,1.,0.));
#382=DIRECTION('ref_axis',(1.,1.11022302462516E-16,0.));
#383=DIRECTION('',(1.11022302462516E-16,-1.,0.));
#384=DIRECTION('center_axis',(-4.28626379701574E-16,1.,0.));
#385=DIRECTION('ref_axis',(1.,1.11022302462516E-16,0.));
#386=DIRECTION('center_axis',(-1.11022302462516E-16,1.,0.));
#387=DIRECTION('ref_axis',(1.,1.11022302462516E-16,0.));
#388=DIRECTION('center_axis',(1.11022302462516E-16,-1.,0.));
#389=DIRECTION('ref_axis',(1.,1.11022302462516E-16,0.));
#390=DIRECTION('',(0.707106781186547,-0.707106781186547,-8.65956056235493E-17));
#391=DIRECTION('center_axis',(-1.11022302462516E-16,1.,0.));
#392=DIRECTION('ref_axis',(1.,1.11022302462516E-16,0.));
#393=DIRECTION('center_axis',(-1.11022302462516E-16,1.,0.));
#394=DIRECTION('ref_axis',(1.,1.11022302462516E-16,0.));
#395=DIRECTION('',(1.11022302462516E-16,-1.,0.));
#396=DIRECTION('center_axis',(-4.28626379701574E-16,1.,0.));
#397=DIRECTION('ref_axis',(1.,1.11022302462516E-16,0.));
#398=DIRECTION('center_axis',(-1.11022302462516E-16,1.,0.));
#399=DIRECTION('ref_axis',(1.,1.11022302462516E-16,0.));
#400=DIRECTION('center_axis',(1.11022302462516E-16,-1.,0.));
#401=DIRECTION('ref_axis',(1.,1.11022302462516E-16,0.));
#402=DIRECTION('',(0.707106781186548,-0.707106781186548,-8.65956056235493E-17));
#403=DIRECTION('center_axis',(-1.11022302462516E-16,1.,0.));
#404=DIRECTION('ref_axis',(1.,1.11022302462516E-16,0.));
#405=DIRECTION('center_axis',(-1.11022302462516E-16,1.,0.));
#406=DIRECTION('ref_axis',(1.,1.11022302462516E-16,0.));
#407=DIRECTION('',(1.11022302462516E-16,-1.,0.));
#408=DIRECTION('center_axis',(-4.28626379701574E-16,1.,0.));
#409=DIRECTION('ref_axis',(1.,1.11022302462516E-16,0.));
#410=DIRECTION('center_axis',(4.28626379701574E-16,-1.,0.));
#411=DIRECTION('ref_axis',(-1.,-4.28626379701574E-16,0.));
#412=DIRECTION('',(-1.,-4.28626379701574E-16,0.));
#413=DIRECTION('',(0.,0.,-1.));
#414=DIRECTION('',(-1.,-4.28626379701574E-16,0.));
#415=DIRECTION('',(0.,0.,-1.));
#416=DIRECTION('center_axis',(1.,1.98254111540207E-16,0.));
#417=DIRECTION('ref_axis',(1.98254111540207E-16,-1.,0.));
#418=DIRECTION('',(1.98254111540207E-16,-1.,0.));
#419=DIRECTION('',(1.98254111540207E-16,-1.,0.));
#420=DIRECTION('',(0.,0.,-1.));
#421=DIRECTION('center_axis',(8.5401771125012E-16,-1.,0.));
#422=DIRECTION('ref_axis',(-1.,-8.5401771125012E-16,0.));
#423=DIRECTION('',(-1.,-8.5401771125012E-16,0.));
#424=DIRECTION('',(-1.,-8.5401771125012E-16,0.));
#425=DIRECTION('',(0.,0.,-1.));
#426=DIRECTION('center_axis',(1.,0.,0.));
#427=DIRECTION('ref_axis',(0.,-1.,0.));
#428=DIRECTION('',(0.,-1.,0.));
#429=DIRECTION('',(0.,-1.,0.));
#430=DIRECTION('',(0.,0.,-1.));
#431=DIRECTION('center_axis',(-1.11022302462516E-16,1.,0.));
#432=DIRECTION('ref_axis',(1.,1.11022302462516E-16,0.));
#433=DIRECTION('',(1.,1.11022302462516E-16,0.));
#434=DIRECTION('',(1.,1.11022302462516E-16,0.));
#435=DIRECTION('',(0.,0.,-1.));
#436=DIRECTION('center_axis',(-1.,0.,0.));
#437=DIRECTION('ref_axis',(0.,1.,0.));
#438=DIRECTION('',(0.,1.,0.));
#439=DIRECTION('',(0.,1.,0.));
#440=DIRECTION('center_axis',(0.,0.,-1.));
#441=DIRECTION('ref_axis',(-1.,0.,0.));
#442=DIRECTION('center_axis',(0.,0.,1.));
#443=DIRECTION('ref_axis',(1.,0.,0.));
#444=CARTESIAN_POINT('',(0.,0.,0.));
#445=CARTESIAN_POINT('Origin',(61.3514466007119,4.,-55.));
#446=CARTESIAN_POINT('',(0.,4.,-56.2295));
#447=CARTESIAN_POINT('Origin',(0.,4.,-55.));
#448=CARTESIAN_POINT('',(7.4,4.,-56.2295));
#449=CARTESIAN_POINT('',(61.3514466007119,4.,-56.2295));
#450=CARTESIAN_POINT('Origin',(7.4,4.,-55.));
#451=CARTESIAN_POINT('Origin',(61.3514466007119,4.,-5.));
#452=CARTESIAN_POINT('',(0.,4.,-6.2295));
#453=CARTESIAN_POINT('Origin',(0.,4.,-5.));
#454=CARTESIAN_POINT('',(7.4,4.,-6.2295));
#455=CARTESIAN_POINT('',(61.3514466007119,4.,-6.2295));
#456=CARTESIAN_POINT('Origin',(7.4,4.,-5.));
#457=CARTESIAN_POINT('Origin',(3.5,7.275,-30.));
#458=CARTESIAN_POINT('',(0.35,8.,-30.));
#459=CARTESIAN_POINT('Origin',(3.5,8.,-30.));
#460=CARTESIAN_POINT('',(1.8,6.55,-30.));
#461=CARTESIAN_POINT('',(1.075,7.275,-30.));
#462=CARTESIAN_POINT('Origin',(3.5,6.55,-30.));
#463=CARTESIAN_POINT('Origin',(3.5,4.,-30.));
#464=CARTESIAN_POINT('',(1.8,2.77555756156289E-15,-30.));
#465=CARTESIAN_POINT('',(1.8,4.,-30.));
#466=CARTESIAN_POINT('Origin',(3.5,2.77555756156289E-15,-30.));
#467=CARTESIAN_POINT('Origin',(3.5,7.275,-15.));
#468=CARTESIAN_POINT('',(0.35,8.,-15.));
#469=CARTESIAN_POINT('Origin',(3.5,8.,-15.));
#470=CARTESIAN_POINT('',(1.8,6.55,-15.));
#471=CARTESIAN_POINT('',(1.075,7.275,-15.));
#472=CARTESIAN_POINT('Origin',(3.5,6.55,-15.));
#473=CARTESIAN_POINT('Origin',(3.5,4.,-15.));
#474=CARTESIAN_POINT('',(1.8,2.77555756156289E-15,-15.));
#475=CARTESIAN_POINT('',(1.8,4.,-15.));
#476=CARTESIAN_POINT('Origin',(3.5,2.77555756156289E-15,-15.));
#477=CARTESIAN_POINT('Origin',(3.5,7.275,-45.));
#478=CARTESIAN_POINT('',(0.349999999999997,8.,-45.));
#479=CARTESIAN_POINT('Origin',(3.5,8.,-45.));
#480=CARTESIAN_POINT('',(1.8,6.55,-45.));
#481=CARTESIAN_POINT('',(1.075,7.275,-45.));
#482=CARTESIAN_POINT('Origin',(3.5,6.55,-45.));
#483=CARTESIAN_POINT('Origin',(3.5,4.,-45.));
#484=CARTESIAN_POINT('',(1.8,2.77555756156289E-15,-45.));
#485=CARTESIAN_POINT('',(1.8,4.,-45.));
#486=CARTESIAN_POINT('Origin',(3.5,2.77555756156289E-15,-45.));
#487=CARTESIAN_POINT('Origin',(7.4,3.17183520979164E-15,0.));
#488=CARTESIAN_POINT('',(7.4,3.17183520979164E-15,0.));
#489=CARTESIAN_POINT('',(0.,0.,0.));
#490=CARTESIAN_POINT('',(7.4,3.17183520979164E-15,0.));
#491=CARTESIAN_POINT('',(0.,0.,-60.));
#492=CARTESIAN_POINT('',(0.,0.,0.));
#493=CARTESIAN_POINT('',(7.4,3.17183520979164E-15,-60.));
#494=CARTESIAN_POINT('',(7.4,3.17183520979164E-15,-60.));
#495=CARTESIAN_POINT('',(7.4,3.17183520979164E-15,0.));
#496=CARTESIAN_POINT('Origin',(7.4,5.6,0.));
#497=CARTESIAN_POINT('',(7.4,5.6,0.));
#498=CARTESIAN_POINT('',(7.4,5.6,0.));
#499=CARTESIAN_POINT('',(7.4,5.6,-60.));
#500=CARTESIAN_POINT('',(7.4,5.6,-60.));
#501=CARTESIAN_POINT('',(7.4,5.6,0.));
#502=CARTESIAN_POINT('Origin',(10.,5.6,0.));
#503=CARTESIAN_POINT('',(10.,5.6,0.));
#504=CARTESIAN_POINT('',(10.,5.6,0.));
#505=CARTESIAN_POINT('',(10.,5.6,-60.));
#506=CARTESIAN_POINT('',(10.,5.6,-60.));
#507=CARTESIAN_POINT('',(10.,5.6,0.));
#508=CARTESIAN_POINT('Origin',(10.,8.,0.));
#509=CARTESIAN_POINT('',(10.,8.,0.));
#510=CARTESIAN_POINT('',(10.,8.,0.));
#511=CARTESIAN_POINT('',(10.,8.,-60.));
#512=CARTESIAN_POINT('',(10.,8.,-60.));
#513=CARTESIAN_POINT('',(10.,8.,0.));
#514=CARTESIAN_POINT('Origin',(0.,8.,0.));
#515=CARTESIAN_POINT('',(0.,8.,0.));
#516=CARTESIAN_POINT('',(0.,8.,0.));
#517=CARTESIAN_POINT('',(0.,8.,-60.));
#518=CARTESIAN_POINT('',(0.,8.,-60.));
#519=CARTESIAN_POINT('',(0.,8.,0.));
#520=CARTESIAN_POINT('Origin',(0.,0.,0.));
#521=CARTESIAN_POINT('',(0.,0.,0.));
#522=CARTESIAN_POINT('',(0.,0.,-60.));
#523=CARTESIAN_POINT('Origin',(4.59555555555556,4.40444444444445,-60.));
#524=CARTESIAN_POINT('Origin',(4.59555555555556,4.40444444444445,0.));
#525=UNCERTAINTY_MEASURE_WITH_UNIT(LENGTH_MEASURE(0.01),#529,
'DISTANCE_ACCURACY_VALUE',
'Maximum model space distance between geometric entities at asserted c
onnectivities');
#526=UNCERTAINTY_MEASURE_WITH_UNIT(LENGTH_MEASURE(0.01),#529,
'DISTANCE_ACCURACY_VALUE',
'Maximum model space distance between geometric entities at asserted c
onnectivities');
#527=(
GEOMETRIC_REPRESENTATION_CONTEXT(3)
GLOBAL_UNCERTAINTY_ASSIGNED_CONTEXT((#525))
GLOBAL_UNIT_ASSIGNED_CONTEXT((#529,#531,#532))
REPRESENTATION_CONTEXT('','3D')
);
#528=(
GEOMETRIC_REPRESENTATION_CONTEXT(3)
GLOBAL_UNCERTAINTY_ASSIGNED_CONTEXT((#526))
GLOBAL_UNIT_ASSIGNED_CONTEXT((#529,#531,#532))
REPRESENTATION_CONTEXT('','3D')
);
#529=(
LENGTH_UNIT()
NAMED_UNIT(*)
SI_UNIT(.MILLI.,.METRE.)
);
#530=(
LENGTH_UNIT()
NAMED_UNIT(*)
SI_UNIT(.CENTI.,.METRE.)
);
#531=(
NAMED_UNIT(*)
PLANE_ANGLE_UNIT()
SI_UNIT($,.RADIAN.)
);
#532=(
NAMED_UNIT(*)
SI_UNIT($,.STERADIAN.)
SOLID_ANGLE_UNIT()
);
#533=SHAPE_DEFINITION_REPRESENTATION(#534,#535);
#534=PRODUCT_DEFINITION_SHAPE('',$,#537);
#535=SHAPE_REPRESENTATION('',(#328),#527);
#536=PRODUCT_DEFINITION_CONTEXT('part definition',#541,'design');
#537=PRODUCT_DEFINITION('HJS_IND_MT_03A',
'indexingMount_rail_mount_rev0',#538,#536);
#538=PRODUCT_DEFINITION_FORMATION('0',$,#543);
#539=PRODUCT_RELATED_PRODUCT_CATEGORY('indexingMount_rail_mount_rev0',
'indexingMount_rail_mount_rev0',(#543));
#540=APPLICATION_PROTOCOL_DEFINITION('international standard',
'automotive_design',2009,#541);
#541=APPLICATION_CONTEXT(
'Core Data for Automotive Mechanical Design Process');
#542=PRODUCT_CONTEXT('part definition',#541,'mechanical');
#543=PRODUCT('HJS_IND_MT_03A','indexingMount_rail_mount_rev0',
'Alignment Rail With Mounting Holes',(#542));
#544=PRESENTATION_STYLE_ASSIGNMENT((#546));
#545=PRESENTATION_STYLE_ASSIGNMENT((#547));
#546=SURFACE_STYLE_USAGE(.BOTH.,#552);
#547=SURFACE_STYLE_USAGE(.BOTH.,#553);
#548=SURFACE_STYLE_RENDERING_WITH_PROPERTIES($,#560,(#550));
#549=SURFACE_STYLE_RENDERING_WITH_PROPERTIES($,#561,(#551));
#550=SURFACE_STYLE_TRANSPARENT(0.);
#551=SURFACE_STYLE_TRANSPARENT(0.);
#552=SURFACE_SIDE_STYLE('',(#554,#548));
#553=SURFACE_SIDE_STYLE('',(#555,#549));
#554=SURFACE_STYLE_FILL_AREA(#556);
#555=SURFACE_STYLE_FILL_AREA(#557);
#556=FILL_AREA_STYLE('',(#558));
#557=FILL_AREA_STYLE('',(#559));
#558=FILL_AREA_STYLE_COLOUR('',#560);
#559=FILL_AREA_STYLE_COLOUR('',#561);
#560=COLOUR_RGB('',0.996078431372549,0.996078431372549,1.);
#561=COLOUR_RGB('',0.796078431372549,0.603921568627451,0.231372549019608);
ENDSEC;
END-ISO-10303-21;
