ISO-10303-21;
HEADER;
/* Generated by software containing ST-Developer
 * from STEP Tools, Inc. (www.steptools.com) 
 */

FILE_DESCRIPTION(
/* description */ (''),
/* implementation_level */ '2;1');

FILE_NAME(
/* name */ 
'C:\\Users\\AugustinZaininger\\OneDrive - Nexus365\\Oxford\\mechanical
PressureTest\\version4\\GloveboxELQE\\rev_1\\20210103_glovebox_ELQE_re
v1_baffle.stp',
/* time_stamp */ '2021-08-30T21:33:21+01:00',
/* author */ ('Augustin'),
/* organization */ (''),
/* preprocessor_version */ 'ST-DEVELOPER v18.1',
/* originating_system */ 'Autodesk Inventor 2022',
/* authorisation */ '');

FILE_SCHEMA (('AUTOMOTIVE_DESIGN { 1 0 10303 214 3 1 1 }'));
ENDSEC;

DATA;
#10=MECHANICAL_DESIGN_GEOMETRIC_PRESENTATION_REPRESENTATION('',(#13),#297);
#11=SHAPE_REPRESENTATION_RELATIONSHIP('SRR','None',#304,#12);
#12=ADVANCED_BREP_SHAPE_REPRESENTATION('',(#14),#296);
#13=STYLED_ITEM('',(#314),#14);
#14=MANIFOLD_SOLID_BREP('Solid1',#169);
#15=FACE_BOUND('',#43,.T.);
#16=FACE_BOUND('',#44,.T.);
#17=PLANE('',#197);
#18=PLANE('',#198);
#19=PLANE('',#199);
#20=PLANE('',#200);
#21=PLANE('',#201);
#22=PLANE('',#202);
#23=CYLINDRICAL_SURFACE('',#191,1.0065);
#24=CYLINDRICAL_SURFACE('',#195,1.0065);
#25=FACE_OUTER_BOUND('',#35,.T.);
#26=FACE_OUTER_BOUND('',#36,.T.);
#27=FACE_OUTER_BOUND('',#37,.T.);
#28=FACE_OUTER_BOUND('',#38,.T.);
#29=FACE_OUTER_BOUND('',#39,.T.);
#30=FACE_OUTER_BOUND('',#40,.T.);
#31=FACE_OUTER_BOUND('',#41,.T.);
#32=FACE_OUTER_BOUND('',#42,.T.);
#33=FACE_OUTER_BOUND('',#45,.T.);
#34=FACE_OUTER_BOUND('',#46,.T.);
#35=EDGE_LOOP('',(#117,#118,#119));
#36=EDGE_LOOP('',(#120,#121,#122,#123));
#37=EDGE_LOOP('',(#124,#125,#126));
#38=EDGE_LOOP('',(#127,#128,#129,#130));
#39=EDGE_LOOP('',(#131,#132,#133,#134));
#40=EDGE_LOOP('',(#135,#136,#137,#138));
#41=EDGE_LOOP('',(#139,#140,#141,#142));
#42=EDGE_LOOP('',(#143,#144,#145,#146));
#43=EDGE_LOOP('',(#147));
#44=EDGE_LOOP('',(#148));
#45=EDGE_LOOP('',(#149,#150,#151,#152));
#46=EDGE_LOOP('',(#153,#154,#155,#156));
#47=LINE('',#254,#63);
#48=LINE('',#258,#64);
#49=LINE('',#263,#65);
#50=LINE('',#267,#66);
#51=LINE('',#271,#67);
#52=LINE('',#273,#68);
#53=LINE('',#275,#69);
#54=LINE('',#276,#70);
#55=LINE('',#279,#71);
#56=LINE('',#281,#72);
#57=LINE('',#282,#73);
#58=LINE('',#285,#74);
#59=LINE('',#287,#75);
#60=LINE('',#288,#76);
#61=LINE('',#290,#77);
#62=LINE('',#291,#78);
#63=VECTOR('',#209,0.50325);
#64=VECTOR('',#214,1.0065);
#65=VECTOR('',#219,0.50325);
#66=VECTOR('',#224,1.0065);
#67=VECTOR('',#227,10.);
#68=VECTOR('',#228,10.);
#69=VECTOR('',#229,10.);
#70=VECTOR('',#230,10.);
#71=VECTOR('',#233,10.);
#72=VECTOR('',#234,10.);
#73=VECTOR('',#235,10.);
#74=VECTOR('',#238,10.);
#75=VECTOR('',#239,10.);
#76=VECTOR('',#240,10.);
#77=VECTOR('',#243,10.);
#78=VECTOR('',#244,10.);
#79=CIRCLE('',#190,1.0065);
#80=CIRCLE('',#192,1.0065);
#81=CIRCLE('',#194,1.0065);
#82=CIRCLE('',#196,1.0065);
#83=VERTEX_POINT('',#251);
#84=VERTEX_POINT('',#253);
#85=VERTEX_POINT('',#256);
#86=VERTEX_POINT('',#260);
#87=VERTEX_POINT('',#262);
#88=VERTEX_POINT('',#265);
#89=VERTEX_POINT('',#269);
#90=VERTEX_POINT('',#270);
#91=VERTEX_POINT('',#272);
#92=VERTEX_POINT('',#274);
#93=VERTEX_POINT('',#278);
#94=VERTEX_POINT('',#280);
#95=VERTEX_POINT('',#284);
#96=VERTEX_POINT('',#286);
#97=EDGE_CURVE('',#83,#83,#79,.T.);
#98=EDGE_CURVE('',#83,#84,#47,.T.);
#99=EDGE_CURVE('',#85,#85,#80,.T.);
#100=EDGE_CURVE('',#85,#83,#48,.T.);
#101=EDGE_CURVE('',#86,#86,#81,.T.);
#102=EDGE_CURVE('',#86,#87,#49,.T.);
#103=EDGE_CURVE('',#88,#88,#82,.T.);
#104=EDGE_CURVE('',#88,#86,#50,.T.);
#105=EDGE_CURVE('',#89,#90,#51,.T.);
#106=EDGE_CURVE('',#90,#91,#52,.T.);
#107=EDGE_CURVE('',#92,#91,#53,.T.);
#108=EDGE_CURVE('',#89,#92,#54,.T.);
#109=EDGE_CURVE('',#93,#89,#55,.T.);
#110=EDGE_CURVE('',#94,#92,#56,.T.);
#111=EDGE_CURVE('',#93,#94,#57,.T.);
#112=EDGE_CURVE('',#95,#93,#58,.T.);
#113=EDGE_CURVE('',#96,#94,#59,.T.);
#114=EDGE_CURVE('',#95,#96,#60,.T.);
#115=EDGE_CURVE('',#90,#95,#61,.T.);
#116=EDGE_CURVE('',#91,#96,#62,.T.);
#117=ORIENTED_EDGE('',*,*,#97,.T.);
#118=ORIENTED_EDGE('',*,*,#98,.T.);
#119=ORIENTED_EDGE('',*,*,#98,.F.);
#120=ORIENTED_EDGE('',*,*,#99,.F.);
#121=ORIENTED_EDGE('',*,*,#100,.T.);
#122=ORIENTED_EDGE('',*,*,#97,.F.);
#123=ORIENTED_EDGE('',*,*,#100,.F.);
#124=ORIENTED_EDGE('',*,*,#101,.T.);
#125=ORIENTED_EDGE('',*,*,#102,.T.);
#126=ORIENTED_EDGE('',*,*,#102,.F.);
#127=ORIENTED_EDGE('',*,*,#103,.F.);
#128=ORIENTED_EDGE('',*,*,#104,.T.);
#129=ORIENTED_EDGE('',*,*,#101,.F.);
#130=ORIENTED_EDGE('',*,*,#104,.F.);
#131=ORIENTED_EDGE('',*,*,#105,.T.);
#132=ORIENTED_EDGE('',*,*,#106,.T.);
#133=ORIENTED_EDGE('',*,*,#107,.F.);
#134=ORIENTED_EDGE('',*,*,#108,.F.);
#135=ORIENTED_EDGE('',*,*,#109,.T.);
#136=ORIENTED_EDGE('',*,*,#108,.T.);
#137=ORIENTED_EDGE('',*,*,#110,.F.);
#138=ORIENTED_EDGE('',*,*,#111,.F.);
#139=ORIENTED_EDGE('',*,*,#112,.T.);
#140=ORIENTED_EDGE('',*,*,#111,.T.);
#141=ORIENTED_EDGE('',*,*,#113,.F.);
#142=ORIENTED_EDGE('',*,*,#114,.F.);
#143=ORIENTED_EDGE('',*,*,#115,.T.);
#144=ORIENTED_EDGE('',*,*,#114,.T.);
#145=ORIENTED_EDGE('',*,*,#116,.F.);
#146=ORIENTED_EDGE('',*,*,#106,.F.);
#147=ORIENTED_EDGE('',*,*,#99,.T.);
#148=ORIENTED_EDGE('',*,*,#103,.T.);
#149=ORIENTED_EDGE('',*,*,#116,.T.);
#150=ORIENTED_EDGE('',*,*,#113,.T.);
#151=ORIENTED_EDGE('',*,*,#110,.T.);
#152=ORIENTED_EDGE('',*,*,#107,.T.);
#153=ORIENTED_EDGE('',*,*,#115,.F.);
#154=ORIENTED_EDGE('',*,*,#105,.F.);
#155=ORIENTED_EDGE('',*,*,#109,.F.);
#156=ORIENTED_EDGE('',*,*,#112,.F.);
#157=CONICAL_SURFACE('',#189,0.50325,1.02974425867665);
#158=CONICAL_SURFACE('',#193,0.50325,1.02974425867665);
#159=ADVANCED_FACE('',(#25),#157,.F.);
#160=ADVANCED_FACE('',(#26),#23,.F.);
#161=ADVANCED_FACE('',(#27),#158,.F.);
#162=ADVANCED_FACE('',(#28),#24,.F.);
#163=ADVANCED_FACE('',(#29),#17,.T.);
#164=ADVANCED_FACE('',(#30),#18,.T.);
#165=ADVANCED_FACE('',(#31),#19,.T.);
#166=ADVANCED_FACE('',(#32,#15,#16),#20,.T.);
#167=ADVANCED_FACE('',(#33),#21,.T.);
#168=ADVANCED_FACE('',(#34),#22,.T.);
#169=CLOSED_SHELL('',(#159,#160,#161,#162,#163,#164,#165,#166,#167,#168));
#170=DERIVED_UNIT_ELEMENT(#172,1.);
#171=DERIVED_UNIT_ELEMENT(#299,-3.);
#172=(
MASS_UNIT()
NAMED_UNIT(*)
SI_UNIT($,.GRAM.)
);
#173=DERIVED_UNIT((#170,#171));
#174=MEASURE_REPRESENTATION_ITEM('density measure',
POSITIVE_RATIO_MEASURE(1.),#173);
#175=PROPERTY_DEFINITION_REPRESENTATION(#180,#177);
#176=PROPERTY_DEFINITION_REPRESENTATION(#181,#178);
#177=REPRESENTATION('material name',(#179),#296);
#178=REPRESENTATION('density',(#174),#296);
#179=DESCRIPTIVE_REPRESENTATION_ITEM('Generic','Generic');
#180=PROPERTY_DEFINITION('material property','material name',#306);
#181=PROPERTY_DEFINITION('material property','density of part',#306);
#182=DATE_TIME_ROLE('creation_date');
#183=APPLIED_DATE_AND_TIME_ASSIGNMENT(#184,#182,(#306));
#184=DATE_AND_TIME(#185,#186);
#185=CALENDAR_DATE(2021,4,1);
#186=LOCAL_TIME(0,0,0.,#187);
#187=COORDINATED_UNIVERSAL_TIME_OFFSET(0,0,.BEHIND.);
#188=AXIS2_PLACEMENT_3D('placement',#249,#203,#204);
#189=AXIS2_PLACEMENT_3D('',#250,#205,#206);
#190=AXIS2_PLACEMENT_3D('',#252,#207,#208);
#191=AXIS2_PLACEMENT_3D('',#255,#210,#211);
#192=AXIS2_PLACEMENT_3D('',#257,#212,#213);
#193=AXIS2_PLACEMENT_3D('',#259,#215,#216);
#194=AXIS2_PLACEMENT_3D('',#261,#217,#218);
#195=AXIS2_PLACEMENT_3D('',#264,#220,#221);
#196=AXIS2_PLACEMENT_3D('',#266,#222,#223);
#197=AXIS2_PLACEMENT_3D('',#268,#225,#226);
#198=AXIS2_PLACEMENT_3D('',#277,#231,#232);
#199=AXIS2_PLACEMENT_3D('',#283,#236,#237);
#200=AXIS2_PLACEMENT_3D('',#289,#241,#242);
#201=AXIS2_PLACEMENT_3D('',#292,#245,#246);
#202=AXIS2_PLACEMENT_3D('',#293,#247,#248);
#203=DIRECTION('axis',(0.,0.,1.));
#204=DIRECTION('refdir',(1.,0.,0.));
#205=DIRECTION('center_axis',(0.,0.,1.));
#206=DIRECTION('ref_axis',(1.,0.,0.));
#207=DIRECTION('center_axis',(0.,0.,1.));
#208=DIRECTION('ref_axis',(1.,0.,0.));
#209=DIRECTION('',(0.857167300702112,1.04972719113862E-16,-0.515038074910054));
#210=DIRECTION('center_axis',(0.,0.,1.));
#211=DIRECTION('ref_axis',(1.,0.,0.));
#212=DIRECTION('center_axis',(0.,0.,-1.));
#213=DIRECTION('ref_axis',(1.,0.,0.));
#214=DIRECTION('',(0.,0.,-1.));
#215=DIRECTION('center_axis',(0.,0.,1.));
#216=DIRECTION('ref_axis',(1.,0.,0.));
#217=DIRECTION('center_axis',(0.,0.,1.));
#218=DIRECTION('ref_axis',(1.,0.,0.));
#219=DIRECTION('',(0.857167300702112,1.04972719113862E-16,-0.515038074910054));
#220=DIRECTION('center_axis',(0.,0.,1.));
#221=DIRECTION('ref_axis',(1.,0.,0.));
#222=DIRECTION('center_axis',(0.,0.,-1.));
#223=DIRECTION('ref_axis',(1.,0.,0.));
#224=DIRECTION('',(0.,0.,-1.));
#225=DIRECTION('center_axis',(-1.,0.,7.40148683083438E-16));
#226=DIRECTION('ref_axis',(7.40148683083438E-16,0.,1.));
#227=DIRECTION('',(7.40148683083438E-16,0.,1.));
#228=DIRECTION('',(0.,1.,0.));
#229=DIRECTION('',(7.40148683083438E-16,0.,1.));
#230=DIRECTION('',(0.,1.,0.));
#231=DIRECTION('center_axis',(-1.85037170770859E-16,0.,-1.));
#232=DIRECTION('ref_axis',(-1.,0.,1.85037170770859E-16));
#233=DIRECTION('',(-1.,0.,1.85037170770859E-16));
#234=DIRECTION('',(-1.,0.,1.85037170770859E-16));
#235=DIRECTION('',(0.,1.,0.));
#236=DIRECTION('center_axis',(1.,0.,0.));
#237=DIRECTION('ref_axis',(0.,0.,-1.));
#238=DIRECTION('',(0.,0.,-1.));
#239=DIRECTION('',(0.,0.,-1.));
#240=DIRECTION('',(0.,1.,0.));
#241=DIRECTION('center_axis',(0.,0.,1.));
#242=DIRECTION('ref_axis',(1.,0.,0.));
#243=DIRECTION('',(1.,0.,0.));
#244=DIRECTION('',(1.,0.,0.));
#245=DIRECTION('center_axis',(0.,1.,0.));
#246=DIRECTION('ref_axis',(0.,0.,1.));
#247=DIRECTION('center_axis',(5.55111512312578E-17,-1.,4.62223186652937E-32));
#248=DIRECTION('ref_axis',(0.,-4.62223186652937E-32,-1.));
#249=CARTESIAN_POINT('',(0.,0.,0.));
#250=CARTESIAN_POINT('Origin',(19.,3.,-5.30238310652562));
#251=CARTESIAN_POINT('',(17.9935,3.,-5.));
#252=CARTESIAN_POINT('Origin',(19.,3.,-5.));
#253=CARTESIAN_POINT('',(19.,3.,-5.60476621305124));
#254=CARTESIAN_POINT('',(18.49675,3.,-5.30238310652562));
#255=CARTESIAN_POINT('Origin',(19.,3.,-2.5));
#256=CARTESIAN_POINT('',(17.9935,3.,0.));
#257=CARTESIAN_POINT('Origin',(19.,3.,0.));
#258=CARTESIAN_POINT('',(17.9935,3.,-2.5));
#259=CARTESIAN_POINT('Origin',(29.,3.,-5.30238310652562));
#260=CARTESIAN_POINT('',(27.9935,3.,-5.));
#261=CARTESIAN_POINT('Origin',(29.,3.,-5.));
#262=CARTESIAN_POINT('',(29.,3.,-5.60476621305124));
#263=CARTESIAN_POINT('',(28.49675,3.,-5.30238310652562));
#264=CARTESIAN_POINT('Origin',(29.,3.,-2.5));
#265=CARTESIAN_POINT('',(27.9935,3.,0.));
#266=CARTESIAN_POINT('Origin',(29.,3.,0.));
#267=CARTESIAN_POINT('',(27.9935,3.,-2.5));
#268=CARTESIAN_POINT('Origin',(-8.88178419700125E-15,0.,-12.));
#269=CARTESIAN_POINT('',(-8.88178419700125E-15,0.,-12.));
#270=CARTESIAN_POINT('',(0.,0.,0.));
#271=CARTESIAN_POINT('',(-8.88178419700125E-15,0.,-12.));
#272=CARTESIAN_POINT('',(0.,6.,0.));
#273=CARTESIAN_POINT('',(0.,0.,0.));
#274=CARTESIAN_POINT('',(-8.88178419700125E-15,6.,-12.));
#275=CARTESIAN_POINT('',(-8.88178419700125E-15,6.,-12.));
#276=CARTESIAN_POINT('',(-8.88178419700125E-15,0.,-12.));
#277=CARTESIAN_POINT('Origin',(48.,0.,-12.));
#278=CARTESIAN_POINT('',(48.,0.,-12.));
#279=CARTESIAN_POINT('',(48.,0.,-12.));
#280=CARTESIAN_POINT('',(48.,6.,-12.));
#281=CARTESIAN_POINT('',(48.,6.,-12.));
#282=CARTESIAN_POINT('',(48.,0.,-12.));
#283=CARTESIAN_POINT('Origin',(48.,0.,0.));
#284=CARTESIAN_POINT('',(48.,0.,0.));
#285=CARTESIAN_POINT('',(48.,0.,0.));
#286=CARTESIAN_POINT('',(48.,6.,0.));
#287=CARTESIAN_POINT('',(48.,6.,0.));
#288=CARTESIAN_POINT('',(48.,0.,0.));
#289=CARTESIAN_POINT('Origin',(0.,0.,0.));
#290=CARTESIAN_POINT('',(0.,0.,0.));
#291=CARTESIAN_POINT('',(0.,6.,0.));
#292=CARTESIAN_POINT('Origin',(24.,6.,-6.));
#293=CARTESIAN_POINT('Origin',(24.,0.,-6.));
#294=UNCERTAINTY_MEASURE_WITH_UNIT(LENGTH_MEASURE(0.01),#298,
'DISTANCE_ACCURACY_VALUE',
'Maximum model space distance between geometric entities at asserted c
onnectivities');
#295=UNCERTAINTY_MEASURE_WITH_UNIT(LENGTH_MEASURE(0.01),#298,
'DISTANCE_ACCURACY_VALUE',
'Maximum model space distance between geometric entities at asserted c
onnectivities');
#296=(
GEOMETRIC_REPRESENTATION_CONTEXT(3)
GLOBAL_UNCERTAINTY_ASSIGNED_CONTEXT((#294))
GLOBAL_UNIT_ASSIGNED_CONTEXT((#298,#300,#301))
REPRESENTATION_CONTEXT('','3D')
);
#297=(
GEOMETRIC_REPRESENTATION_CONTEXT(3)
GLOBAL_UNCERTAINTY_ASSIGNED_CONTEXT((#295))
GLOBAL_UNIT_ASSIGNED_CONTEXT((#298,#300,#301))
REPRESENTATION_CONTEXT('','3D')
);
#298=(
LENGTH_UNIT()
NAMED_UNIT(*)
SI_UNIT(.MILLI.,.METRE.)
);
#299=(
LENGTH_UNIT()
NAMED_UNIT(*)
SI_UNIT(.CENTI.,.METRE.)
);
#300=(
NAMED_UNIT(*)
PLANE_ANGLE_UNIT()
SI_UNIT($,.RADIAN.)
);
#301=(
NAMED_UNIT(*)
SI_UNIT($,.STERADIAN.)
SOLID_ANGLE_UNIT()
);
#302=SHAPE_DEFINITION_REPRESENTATION(#303,#304);
#303=PRODUCT_DEFINITION_SHAPE('',$,#306);
#304=SHAPE_REPRESENTATION('',(#188),#296);
#305=PRODUCT_DEFINITION_CONTEXT('part definition',#310,'design');
#306=PRODUCT_DEFINITION('20210103_glovebox_ELQE_rev1_baffle',
'20210103_glovebox_ELQE_rev1_baffle',#307,#305);
#307=PRODUCT_DEFINITION_FORMATION('',$,#312);
#308=PRODUCT_RELATED_PRODUCT_CATEGORY(
'20210103_glovebox_ELQE_rev1_baffle',
'20210103_glovebox_ELQE_rev1_baffle',(#312));
#309=APPLICATION_PROTOCOL_DEFINITION('international standard',
'automotive_design',2009,#310);
#310=APPLICATION_CONTEXT(
'Core Data for Automotive Mechanical Design Process');
#311=PRODUCT_CONTEXT('part definition',#310,'mechanical');
#312=PRODUCT('20210103_glovebox_ELQE_rev1_baffle',
'20210103_glovebox_ELQE_rev1_baffle',$,(#311));
#313=PRESENTATION_STYLE_ASSIGNMENT((#315));
#314=PRESENTATION_STYLE_ASSIGNMENT((#316));
#315=SURFACE_STYLE_USAGE(.BOTH.,#321);
#316=SURFACE_STYLE_USAGE(.BOTH.,#322);
#317=SURFACE_STYLE_RENDERING_WITH_PROPERTIES($,#329,(#319));
#318=SURFACE_STYLE_RENDERING_WITH_PROPERTIES($,#330,(#320));
#319=SURFACE_STYLE_TRANSPARENT(0.);
#320=SURFACE_STYLE_TRANSPARENT(0.);
#321=SURFACE_SIDE_STYLE('',(#323,#317));
#322=SURFACE_SIDE_STYLE('',(#324,#318));
#323=SURFACE_STYLE_FILL_AREA(#325);
#324=SURFACE_STYLE_FILL_AREA(#326);
#325=FILL_AREA_STYLE('',(#327));
#326=FILL_AREA_STYLE('',(#328));
#327=FILL_AREA_STYLE_COLOUR('',#329);
#328=FILL_AREA_STYLE_COLOUR('',#330);
#329=COLOUR_RGB('',0.749019607843137,0.749019607843137,0.749019607843137);
#330=COLOUR_RGB('',0.0392156862745098,0.0392156862745098,0.0392156862745098);
ENDSEC;
END-ISO-10303-21;
